EESchema Schematic File Version 2
LIBS:power
LIBS:device
LIBS:transistors
LIBS:conn
LIBS:linear
LIBS:regul
LIBS:74xx
LIBS:cmos4000
LIBS:adc-dac
LIBS:memory
LIBS:xilinx
LIBS:microcontrollers
LIBS:dsp
LIBS:microchip
LIBS:analog_switches
LIBS:motorola
LIBS:texas
LIBS:intel
LIBS:audio
LIBS:interface
LIBS:digital-audio
LIBS:philips
LIBS:display
LIBS:cypress
LIBS:siliconi
LIBS:opto
LIBS:atmel
LIBS:contrib
LIBS:valves
LIBS:smiley-component
LIBS:headlamp-cache
EELAYER 25 0
EELAYER END
$Descr A4 11693 8268
encoding utf-8
Sheet 1 1
Title ""
Date ""
Rev ""
Comp ""
Comment1 ""
Comment2 ""
Comment3 ""
Comment4 ""
$EndDescr
$Comp
L ME9926 Q2
U 2 1 57CEB8DC
P 10400 3700
F 0 "Q2" H 10650 3775 50  0000 L CNN
F 1 "ME9926" H 10650 3700 50  0000 L CNN
F 2 "Housings_SOIC:SOIC-8_3.9x4.9mm_Pitch1.27mm" H 10650 3625 50  0000 L CNN
F 3 "" H 10400 3700 50  0000 L CNN
	2    10400 3700
	1    0    0    -1  
$EndComp
$Comp
L ME9926 Q2
U 1 1 57CEB99B
P 7600 3700
F 0 "Q2" H 7850 3775 50  0000 L CNN
F 1 "ME9926" H 7850 3700 50  0000 L CNN
F 2 "Housings_SOIC:SOIC-8_3.9x4.9mm_Pitch1.27mm" H 7850 3625 50  0000 L CNN
F 3 "" H 7600 3700 50  0000 L CNN
	1    7600 3700
	1    0    0    -1  
$EndComp
$Comp
L ME9926 Q1
U 2 1 57CEB9C6
P 5000 3700
F 0 "Q1" H 5250 3775 50  0000 L CNN
F 1 "ME9926" H 5250 3700 50  0000 L CNN
F 2 "Housings_SOIC:SOIC-8_3.9x4.9mm_Pitch1.27mm" H 5250 3625 50  0000 L CNN
F 3 "" H 5000 3700 50  0000 L CNN
	2    5000 3700
	1    0    0    -1  
$EndComp
$Comp
L ME9926 Q1
U 1 1 57CEBA05
P 2400 3700
F 0 "Q1" H 2650 3775 50  0000 L CNN
F 1 "ME9926" H 2650 3700 50  0000 L CNN
F 2 "Housings_SOIC:SOIC-8_3.9x4.9mm_Pitch1.27mm" H 2650 3625 50  0000 L CNN
F 3 "" H 2400 3700 50  0000 L CNN
	1    2400 3700
	1    0    0    -1  
$EndComp
$Comp
L R 5R6_1
U 1 1 57CEBEB4
P 2500 4400
F 0 "5R6_1" V 2580 4400 50  0000 C CNN
F 1 "R" V 2500 4400 50  0000 C CNN
F 2 "Resistors_SMD:R_1206_HandSoldering" V 2430 4400 50  0000 C CNN
F 3 "" H 2500 4400 50  0000 C CNN
	1    2500 4400
	1    0    0    -1  
$EndComp
$Comp
L R 5R6_2
U 1 1 57CEBF36
P 5100 4400
F 0 "5R6_2" V 5180 4400 50  0000 C CNN
F 1 "R" V 5100 4400 50  0000 C CNN
F 2 "Resistors_SMD:R_1206_HandSoldering" V 5030 4400 50  0000 C CNN
F 3 "" H 5100 4400 50  0000 C CNN
	1    5100 4400
	1    0    0    -1  
$EndComp
$Comp
L R 5R6_3
U 1 1 57CEC083
P 7700 4400
F 0 "5R6_3" V 7780 4400 50  0000 C CNN
F 1 "R" V 7700 4400 50  0000 C CNN
F 2 "Resistors_SMD:R_1206_HandSoldering" V 7630 4400 50  0000 C CNN
F 3 "" H 7700 4400 50  0000 C CNN
	1    7700 4400
	1    0    0    -1  
$EndComp
$Comp
L R 5R6_4
U 1 1 57CEC125
P 10500 4400
F 0 "5R6_4" V 10580 4400 50  0000 C CNN
F 1 "R" V 10500 4400 50  0000 C CNN
F 2 "Resistors_SMD:R_1206_HandSoldering" V 10430 4400 50  0000 C CNN
F 3 "" H 10500 4400 50  0000 C CNN
	1    10500 4400
	1    0    0    -1  
$EndComp
$Comp
L R R4K7_4
U 1 1 57CEC504
P 9500 3800
F 0 "R4K7_4" V 9580 3800 50  0000 C CNN
F 1 "R" V 9500 3800 50  0000 C CNN
F 2 "Resistors_SMD:R_0805_HandSoldering" V 9430 3800 50  0000 C CNN
F 3 "" H 9500 3800 50  0000 C CNN
	1    9500 3800
	0    1    1    0   
$EndComp
$Comp
L R R4K7_5
U 1 1 57CEC6DF
P 6700 3800
F 0 "R4K7_5" V 6780 3800 50  0000 C CNN
F 1 "R" V 6700 3800 50  0000 C CNN
F 2 "Resistors_SMD:R_0805_HandSoldering" V 6630 3800 50  0000 C CNN
F 3 "" H 6700 3800 50  0000 C CNN
	1    6700 3800
	0    1    1    0   
$EndComp
$Comp
L R R4K7_3
U 1 1 57CEC828
P 4000 3800
F 0 "R4K7_3" V 4080 3800 50  0000 C CNN
F 1 "R" V 4000 3800 50  0000 C CNN
F 2 "Resistors_SMD:R_0805_HandSoldering" V 3930 3800 50  0000 C CNN
F 3 "" H 4000 3800 50  0000 C CNN
	1    4000 3800
	0    1    1    0   
$EndComp
$Comp
L R R4K7_2
U 1 1 57CEC926
P 1400 3800
F 0 "R4K7_2" V 1480 3800 50  0000 C CNN
F 1 "R" V 1400 3800 50  0000 C CNN
F 2 "Resistors_SMD:R_0805_HandSoldering" V 1330 3800 50  0000 C CNN
F 3 "" H 1400 3800 50  0000 C CNN
	1    1400 3800
	0    1    1    0   
$EndComp
$Comp
L Q_NPN_BEC Q4
U 1 1 57CECCDE
P 4600 4100
F 0 "Q4" H 4900 4150 50  0000 R CNN
F 1 "Q_NPN_BEC" H 5200 4050 50  0000 R CNN
F 2 "TO_SOT_Packages_SMD:SOT-23" H 4800 4200 50  0000 C CNN
F 3 "" H 4600 4100 50  0000 C CNN
	1    4600 4100
	-1   0    0    -1  
$EndComp
$Comp
L Q_NPN_BEC Q5
U 1 1 57CECD95
P 7200 4100
F 0 "Q5" H 7500 4150 50  0000 R CNN
F 1 "Q_NPN_BEC" H 7800 4050 50  0000 R CNN
F 2 "TO_SOT_Packages_SMD:SOT-23" H 7400 4200 50  0000 C CNN
F 3 "" H 7200 4100 50  0000 C CNN
	1    7200 4100
	-1   0    0    -1  
$EndComp
$Comp
L Q_NPN_BEC Q6
U 1 1 57CECDF8
P 10000 4100
F 0 "Q6" H 10300 4150 50  0000 R CNN
F 1 "Q_NPN_BEC" H 10600 4050 50  0000 R CNN
F 2 "TO_SOT_Packages_SMD:SOT-23" H 10200 4200 50  0000 C CNN
F 3 "" H 10000 4100 50  0000 C CNN
	1    10000 4100
	-1   0    0    -1  
$EndComp
$Comp
L Q_NPN_BEC Q3
U 1 1 57CECE31
P 2000 4100
F 0 "Q3" H 2300 4150 50  0000 R CNN
F 1 "Q_NPN_BEC" H 2600 4050 50  0000 R CNN
F 2 "TO_SOT_Packages_SMD:SOT-23" H 2200 4200 50  0000 C CNN
F 3 "" H 2000 4100 50  0000 C CNN
	1    2000 4100
	-1   0    0    -1  
$EndComp
Wire Wire Line
	2500 3500 10600 3500
Connection ~ 2600 3500
Connection ~ 5100 3500
Connection ~ 5200 3500
Connection ~ 7700 3500
Connection ~ 7800 3500
Connection ~ 10500 3500
Wire Wire Line
	10200 3800 10200 3750
Wire Wire Line
	9900 3900 9900 3800
Connection ~ 9900 3800
Wire Wire Line
	10500 3900 10500 4250
Wire Wire Line
	10200 4100 10500 4100
Connection ~ 10500 4100
Wire Wire Line
	9900 4800 9900 4300
Wire Wire Line
	600  4800 10500 4800
Wire Wire Line
	10500 4800 10500 4550
Wire Wire Line
	7700 3900 7700 4250
Wire Wire Line
	7100 4300 7100 4800
Connection ~ 9900 4800
Wire Wire Line
	7700 4550 7700 4800
Connection ~ 7700 4800
Wire Wire Line
	7400 4100 7700 4100
Connection ~ 7700 4100
Wire Wire Line
	7100 3900 7100 3750
Wire Wire Line
	6850 3750 7400 3750
Wire Wire Line
	6850 3800 6850 3750
Connection ~ 7100 3750
Wire Wire Line
	5100 3900 5100 4250
Wire Wire Line
	5100 4550 5100 4800
Connection ~ 7100 4800
Wire Wire Line
	4500 4300 4500 4800
Connection ~ 5100 4800
Wire Wire Line
	4500 3900 4500 3750
Wire Wire Line
	4500 3750 4800 3750
Wire Wire Line
	4150 3800 4500 3800
Connection ~ 4500 3800
Wire Wire Line
	4800 4100 5100 4100
Connection ~ 5100 4100
Wire Wire Line
	2500 3900 2500 4250
Wire Wire Line
	2200 4100 2500 4100
Connection ~ 2500 4100
Wire Wire Line
	2500 4550 2500 4800
Connection ~ 4500 4800
Wire Wire Line
	1900 4300 1900 4800
Connection ~ 2500 4800
Wire Wire Line
	1900 3900 1900 3750
Wire Wire Line
	1900 3750 2200 3750
Wire Wire Line
	1550 3800 1900 3800
Connection ~ 1900 3800
Wire Wire Line
	6000 4800 6000 5150
Connection ~ 6000 4800
$Comp
L GND #PWR01
U 1 1 57CEF6F8
P 6000 5150
F 0 "#PWR01" H 6000 4900 50  0001 C CNN
F 1 "GND" H 6000 5000 50  0000 C CNN
F 2 "" H 6000 5150 50  0000 C CNN
F 3 "" H 6000 5150 50  0000 C CNN
	1    6000 5150
	1    0    0    -1  
$EndComp
$Comp
L CONN_01X01 LED-_1
U 1 1 57CEF8FF
P 6050 2750
F 0 "LED-_1" H 6050 2850 50  0000 C CNN
F 1 "CONN_01X01" V 6150 2750 50  0000 C CNN
F 2 "Pin_Headers:Pin_Header_Straight_1x01" H 6050 2750 50  0000 C CNN
F 3 "" H 6050 2750 50  0000 C CNN
	1    6050 2750
	0    -1   -1   0   
$EndComp
Wire Wire Line
	6050 2950 6050 3500
Connection ~ 6050 3500
Wire Wire Line
	1250 3800 650  3800
Text Label 650  3800 0    60   ~ 0
LED1
Wire Wire Line
	3850 3800 3350 3800
Wire Wire Line
	6550 3800 5900 3800
Wire Wire Line
	9350 3800 8700 3800
Text Label 8700 3800 0    60   ~ 0
LED4
Text Label 5900 3800 0    60   ~ 0
LED3
Text Label 3350 3800 0    60   ~ 0
LED2
$Comp
L ATTINY13A-SS IC1
U 1 1 57CF087D
P 2150 1500
F 0 "IC1" H 1350 1900 50  0000 C CNN
F 1 "ATTINY13A-SS" H 2800 1100 50  0000 C CNN
F 2 "Housings_SOIC:SOIJ-8_5.3x5.3mm_Pitch1.27mm" H 2750 1500 50  0000 C CIN
F 3 "" H 1350 1850 50  0000 C CNN
	1    2150 1500
	-1   0    0    1   
$EndComp
Wire Wire Line
	1150 1250 600  1250
Wire Wire Line
	600  1250 600  4800
Connection ~ 1900 4800
Wire Wire Line
	1150 1750 900  1750
Wire Wire Line
	900  1750 900  2800
Wire Wire Line
	900  2800 2700 2800
$Comp
L CONN_01X01 BT+_1
U 1 1 57CF0FBA
P 2900 2800
F 0 "BT+_1" H 2900 2900 50  0000 C CNN
F 1 "CONN_01X01" V 3000 2800 50  0000 C CNN
F 2 "Pin_Headers:Pin_Header_Straight_1x01" H 2900 2800 50  0000 C CNN
F 3 "" H 2900 2800 50  0000 C CNN
	1    2900 2800
	1    0    0    -1  
$EndComp
Wire Wire Line
	3150 1350 3700 1350
Wire Wire Line
	3150 1450 3700 1450
Wire Wire Line
	3150 1550 3700 1550
Wire Wire Line
	3150 1650 3700 1650
Wire Wire Line
	3150 1750 3700 1750
Text Label 3450 1350 0    60   ~ 0
LED1
Text Label 3450 1450 0    60   ~ 0
LED2
Text Label 3450 1650 0    60   ~ 0
LED3
Text Label 3450 1750 0    60   ~ 0
LED4
Text Label 3450 1550 0    60   ~ 0
BTN
Wire Wire Line
	3150 1250 3700 1250
Text Label 3450 1250 0    60   ~ 0
POT
$Comp
L POT RV10K_1
U 1 1 57CFC2B7
P 7400 1750
F 0 "RV10K_1" H 7400 1670 50  0000 C CNN
F 1 "POT" H 7400 1750 50  0000 C CNN
F 2 "smiley-library:BOURNS-3362P_pot" H 7400 1750 50  0000 C CNN
F 3 "" H 7400 1750 50  0000 C CNN
	1    7400 1750
	0    -1   -1   0   
$EndComp
Wire Wire Line
	7400 1600 7400 1050
Wire Wire Line
	7400 1050 6700 1050
Text Label 6800 1050 0    60   ~ 0
VCC
Wire Wire Line
	7250 1750 6250 1750
Text Label 6400 1750 0    60   ~ 0
POT
Wire Wire Line
	6200 2350 7400 2350
Text Label 6450 2350 0    60   ~ 0
GND
Text Label 1900 2800 0    60   ~ 0
VCC
Text Label 650  1250 0    60   ~ 0
GND
$Comp
L CONN_01X01 BTN_1
U 1 1 57CFD28D
P 3900 1550
F 0 "BTN_1" H 3900 1650 50  0000 C CNN
F 1 "CONN_01X01" V 4000 1550 50  0000 C CNN
F 2 "Pin_Headers:Pin_Header_Straight_1x01" H 3900 1550 50  0000 C CNN
F 3 "" H 3900 1550 50  0000 C CNN
	1    3900 1550
	1    0    0    -1  
$EndComp
Wire Wire Line
	9650 3800 10200 3800
$Comp
L CONN_01X01 BT-_1
U 1 1 57CFF28C
P 6350 4600
F 0 "BT-_1" H 6350 4700 50  0000 C CNN
F 1 "CONN_01X01" V 6450 4600 50  0000 C CNN
F 2 "Pin_Headers:Pin_Header_Straight_1x01" H 6350 4600 50  0000 C CNN
F 3 "" H 6350 4600 50  0000 C CNN
	1    6350 4600
	0    -1   -1   0   
$EndComp
Connection ~ 6350 4800
Wire Wire Line
	7400 2350 7400 1900
$Comp
L TEST_1P VCC1
U 1 1 57D06594
P 9250 1200
F 0 "VCC1" H 9250 1470 50  0000 C CNN
F 1 "TEST_1P" H 9250 1400 50  0000 C CNN
F 2 "Measurement_Points:Measurement_Point_Round-SMD-Pad_Small" H 9450 1200 50  0000 C CNN
F 3 "" H 9450 1200 50  0000 C CNN
	1    9250 1200
	0    1    1    0   
$EndComp
$Comp
L TEST_1P RST1
U 1 1 57D0661D
P 9250 1300
F 0 "RST1" H 9250 1570 50  0000 C CNN
F 1 "TEST_1P" H 9250 1500 50  0000 C CNN
F 2 "Measurement_Points:Measurement_Point_Round-SMD-Pad_Small" H 9450 1300 50  0000 C CNN
F 3 "" H 9450 1300 50  0000 C CNN
	1    9250 1300
	0    1    1    0   
$EndComp
$Comp
L TEST_1P SCK1
U 1 1 57D06686
P 9250 1400
F 0 "SCK1" H 9250 1670 50  0000 C CNN
F 1 "TEST_1P" H 9250 1600 50  0000 C CNN
F 2 "Measurement_Points:Measurement_Point_Round-SMD-Pad_Small" H 9450 1400 50  0000 C CNN
F 3 "" H 9450 1400 50  0000 C CNN
	1    9250 1400
	0    1    1    0   
$EndComp
$Comp
L TEST_1P MISO1
U 1 1 57D066CB
P 9250 1500
F 0 "MISO1" H 9250 1770 50  0000 C CNN
F 1 "TEST_1P" H 9250 1700 50  0000 C CNN
F 2 "Measurement_Points:Measurement_Point_Round-SMD-Pad_Small" H 9450 1500 50  0000 C CNN
F 3 "" H 9450 1500 50  0000 C CNN
	1    9250 1500
	0    1    1    0   
$EndComp
$Comp
L TEST_1P MOSI1
U 1 1 57D06714
P 9250 1600
F 0 "MOSI1" H 9250 1870 50  0000 C CNN
F 1 "TEST_1P" H 9250 1800 50  0000 C CNN
F 2 "Measurement_Points:Measurement_Point_Round-SMD-Pad_Small" H 9450 1600 50  0000 C CNN
F 3 "" H 9450 1600 50  0000 C CNN
	1    9250 1600
	0    1    1    0   
$EndComp
$Comp
L TEST_1P GND1
U 1 1 57D0675D
P 9250 1700
F 0 "GND1" H 9250 1970 50  0000 C CNN
F 1 "GND1" H 9250 1900 50  0000 C CNN
F 2 "Measurement_Points:Measurement_Point_Round-SMD-Pad_Small" H 9450 1700 50  0000 C CNN
F 3 "" H 9450 1700 50  0000 C CNN
	1    9250 1700
	0    1    1    0   
$EndComp
Wire Wire Line
	9250 1200 8650 1200
Wire Wire Line
	9250 1300 8650 1300
Wire Wire Line
	9250 1400 8650 1400
Wire Wire Line
	9250 1500 8650 1500
Wire Wire Line
	9250 1600 8650 1600
Wire Wire Line
	9250 1700 8650 1700
Text Label 8800 1200 0    60   ~ 0
VCC
Text Label 8800 1700 0    60   ~ 0
GND
Text Label 8800 1300 0    60   ~ 0
POT
Text Label 8800 1400 0    60   ~ 0
BTN
Text Label 8800 1500 0    60   ~ 0
LED3
Text Label 8800 1600 0    60   ~ 0
LED4
$Comp
L C_Small C1
U 1 1 57D0B1D9
P 750 2300
F 0 "C1" H 760 2370 50  0000 L CNN
F 1 "C_Small" H 760 2220 50  0000 L CNN
F 2 "Capacitors_SMD:C_1206_HandSoldering" H 750 2300 50  0000 C CNN
F 3 "" H 750 2300 50  0000 C CNN
	1    750  2300
	0    1    1    0   
$EndComp
Wire Wire Line
	850  2300 900  2300
Connection ~ 900  2300
Wire Wire Line
	650  2300 600  2300
Connection ~ 600  2300
$EndSCHEMATC
