(kicad_pcb (version 4) (host pcbnew 4.0.3-stable)

  (general
    (links 50)
    (no_connects 0)
    (area 49.994999 112.994999 94.505001 133.005001)
    (thickness 1.6)
    (drawings 60)
    (tracks 235)
    (zones 0)
    (modules 27)
    (nets 18)
  )

  (page A4)
  (layers
    (0 F.Cu signal)
    (31 B.Cu signal)
    (32 B.Adhes user)
    (33 F.Adhes user)
    (34 B.Paste user)
    (35 F.Paste user)
    (36 B.SilkS user)
    (37 F.SilkS user)
    (38 B.Mask user)
    (39 F.Mask user)
    (40 Dwgs.User user)
    (41 Cmts.User user)
    (42 Eco1.User user)
    (43 Eco2.User user)
    (44 Edge.Cuts user)
    (45 Margin user)
    (46 B.CrtYd user)
    (47 F.CrtYd user)
    (48 B.Fab user)
    (49 F.Fab user)
  )

  (setup
    (last_trace_width 0.25)
    (trace_clearance 0.2)
    (zone_clearance 0.508)
    (zone_45_only no)
    (trace_min 0.2)
    (segment_width 0.2)
    (edge_width 0.01)
    (via_size 0.6)
    (via_drill 0.4)
    (via_min_size 0.4)
    (via_min_drill 0.3)
    (uvia_size 0.3)
    (uvia_drill 0.1)
    (uvias_allowed no)
    (uvia_min_size 0.2)
    (uvia_min_drill 0.1)
    (pcb_text_width 0.3)
    (pcb_text_size 1.5 1.5)
    (mod_edge_width 0.15)
    (mod_text_size 1 1)
    (mod_text_width 0.15)
    (pad_size 4.2 4.2)
    (pad_drill 3.6)
    (pad_to_mask_clearance 0.2)
    (aux_axis_origin 0 0)
    (visible_elements FFFEFF7F)
    (pcbplotparams
      (layerselection 0x00030_80000001)
      (usegerberextensions false)
      (excludeedgelayer true)
      (linewidth 0.100000)
      (plotframeref false)
      (viasonmask false)
      (mode 1)
      (useauxorigin false)
      (hpglpennumber 1)
      (hpglpenspeed 20)
      (hpglpendiameter 15)
      (hpglpenoverlay 2)
      (psnegative false)
      (psa4output false)
      (plotreference true)
      (plotvalue true)
      (plotinvisibletext false)
      (padsonsilk false)
      (subtractmaskfromsilk false)
      (outputformat 1)
      (mirror false)
      (drillshape 1)
      (scaleselection 1)
      (outputdirectory ""))
  )

  (net 0 "")
  (net 1 "Net-(5R6_1-Pad1)")
  (net 2 GND)
  (net 3 "Net-(5R6_2-Pad1)")
  (net 4 "Net-(5R6_3-Pad1)")
  (net 5 "Net-(5R6_4-Pad1)")
  (net 6 /VCC)
  (net 7 /BTN)
  (net 8 /POT)
  (net 9 /LED2)
  (net 10 /LED1)
  (net 11 /LED4)
  (net 12 /LED3)
  (net 13 "Net-(LED-_1-Pad1)")
  (net 14 "Net-(Q1-Pad2)")
  (net 15 "Net-(Q1-Pad4)")
  (net 16 "Net-(Q2-Pad2)")
  (net 17 "Net-(Q2-Pad4)")

  (net_class Default "This is the default net class."
    (clearance 0.2)
    (trace_width 0.25)
    (via_dia 0.6)
    (via_drill 0.4)
    (uvia_dia 0.3)
    (uvia_drill 0.1)
    (add_net /BTN)
    (add_net /LED1)
    (add_net /LED2)
    (add_net /LED3)
    (add_net /LED4)
    (add_net /POT)
    (add_net /VCC)
    (add_net GND)
    (add_net "Net-(5R6_1-Pad1)")
    (add_net "Net-(5R6_2-Pad1)")
    (add_net "Net-(5R6_3-Pad1)")
    (add_net "Net-(5R6_4-Pad1)")
    (add_net "Net-(LED-_1-Pad1)")
    (add_net "Net-(Q1-Pad2)")
    (add_net "Net-(Q1-Pad4)")
    (add_net "Net-(Q2-Pad2)")
    (add_net "Net-(Q2-Pad4)")
  )

  (module smiley-library:SOIC-8_3.9x4.9mm_Pitch1.27mm (layer F.Cu) (tedit 57D1547F) (tstamp 57D9DE56)
    (at 54.1 127.4 270)
    (descr "8-Lead Plastic Small Outline (SN) - Narrow, 3.90 mm Body [SOIC] (see Microchip Packaging Specification 00000049BS.pdf)")
    (tags "SOIC 1.27")
    (path /57CEB8DC)
    (attr smd)
    (fp_text reference ME9926 (at 0 -0.5 360) (layer F.SilkS)
      (effects (font (size 1 1) (thickness 0.15)))
    )
    (fp_text value ME9926 (at 0 3.5 270) (layer F.Fab)
      (effects (font (size 1 1) (thickness 0.15)))
    )
    (fp_circle (center -1.5 -2) (end -1.75 -2) (layer F.SilkS) (width 0.15))
    (fp_line (start -1.95 -2.45) (end -1.95 2.45) (layer F.Fab) (width 0.15))
    (fp_line (start 1.95 -2.45) (end -1.95 -2.45) (layer F.Fab) (width 0.15))
    (fp_line (start 1.95 2.45) (end 1.95 -2.45) (layer F.Fab) (width 0.15))
    (fp_line (start -1.95 2.45) (end 1.95 2.45) (layer F.Fab) (width 0.15))
    (fp_line (start -3.75 -2.75) (end -3.75 2.75) (layer F.CrtYd) (width 0.05))
    (fp_line (start 3.75 -2.75) (end 3.75 2.75) (layer F.CrtYd) (width 0.05))
    (fp_line (start -3.75 -2.75) (end 3.75 -2.75) (layer F.CrtYd) (width 0.05))
    (fp_line (start -3.75 2.75) (end 3.75 2.75) (layer F.CrtYd) (width 0.05))
    (fp_line (start -2.075 -2.575) (end -2.075 -2.525) (layer F.SilkS) (width 0.15))
    (fp_line (start 2.075 -2.575) (end 2.075 -2.43) (layer F.SilkS) (width 0.15))
    (fp_line (start 2.075 2.575) (end 2.075 2.43) (layer F.SilkS) (width 0.15))
    (fp_line (start -2.075 2.575) (end -2.075 2.43) (layer F.SilkS) (width 0.15))
    (fp_line (start -2.075 -2.575) (end 2.075 -2.575) (layer F.SilkS) (width 0.15))
    (fp_line (start -2.075 2.575) (end 2.075 2.575) (layer F.SilkS) (width 0.15))
    (fp_line (start -2.075 -2.525) (end -3.475 -2.525) (layer F.SilkS) (width 0.15))
    (pad 1 smd rect (at -2.7 -1.905 270) (size 1.55 0.6) (layers F.Cu F.Paste F.Mask)
      (net 4 "Net-(5R6_3-Pad1)"))
    (pad 2 smd rect (at -2.7 -0.635 270) (size 1.55 0.6) (layers F.Cu F.Paste F.Mask)
      (net 16 "Net-(Q2-Pad2)"))
    (pad 3 smd rect (at -2.7 0.635 270) (size 1.55 0.6) (layers F.Cu F.Paste F.Mask)
      (net 5 "Net-(5R6_4-Pad1)"))
    (pad 4 smd rect (at -2.7 1.905 270) (size 1.55 0.6) (layers F.Cu F.Paste F.Mask)
      (net 17 "Net-(Q2-Pad4)"))
    (pad 5 smd rect (at 2.7 1.905 270) (size 1.55 0.6) (layers F.Cu F.Paste F.Mask)
      (net 13 "Net-(LED-_1-Pad1)"))
    (pad 6 smd rect (at 2.7 0.635 270) (size 1.55 0.6) (layers F.Cu F.Paste F.Mask)
      (net 13 "Net-(LED-_1-Pad1)"))
    (pad 7 smd rect (at 2.7 -0.635 270) (size 1.55 0.6) (layers F.Cu F.Paste F.Mask)
      (net 13 "Net-(LED-_1-Pad1)"))
    (pad 8 smd rect (at 2.7 -1.905 270) (size 1.55 0.6) (layers F.Cu F.Paste F.Mask)
      (net 13 "Net-(LED-_1-Pad1)"))
    (model Housings_SOIC.3dshapes/SOIC-8_3.9x4.9mm_Pitch1.27mm.wrl
      (at (xyz 0 0 0))
      (scale (xyz 1 1 1))
      (rotate (xyz 0 0 0))
    )
  )

  (module Resistors_SMD:R_1206_HandSoldering (layer F.Cu) (tedit 57D15417) (tstamp 57D9DD8C)
    (at 78 117.2 90)
    (descr "Resistor SMD 1206, hand soldering")
    (tags "resistor 1206")
    (path /57CEBEB4)
    (attr smd)
    (fp_text reference 5R6_1 (at 0 -2.3 90) (layer F.SilkS) hide
      (effects (font (size 1 1) (thickness 0.15)))
    )
    (fp_text value R (at 0 2.3 90) (layer F.Fab)
      (effects (font (size 1 1) (thickness 0.15)))
    )
    (fp_line (start -3.3 -1.2) (end 3.3 -1.2) (layer F.CrtYd) (width 0.05))
    (fp_line (start -3.3 1.2) (end 3.3 1.2) (layer F.CrtYd) (width 0.05))
    (fp_line (start -3.3 -1.2) (end -3.3 1.2) (layer F.CrtYd) (width 0.05))
    (fp_line (start 3.3 -1.2) (end 3.3 1.2) (layer F.CrtYd) (width 0.05))
    (fp_line (start 1 1.075) (end -1 1.075) (layer F.SilkS) (width 0.15))
    (fp_line (start -1 -1.075) (end 1 -1.075) (layer F.SilkS) (width 0.15))
    (pad 1 smd rect (at -2 0 90) (size 2 1.7) (layers F.Cu F.Paste F.Mask)
      (net 1 "Net-(5R6_1-Pad1)"))
    (pad 2 smd rect (at 2 0 90) (size 2 1.7) (layers F.Cu F.Paste F.Mask)
      (net 2 GND))
    (model Resistors_SMD.3dshapes/R_1206_HandSoldering.wrl
      (at (xyz 0 0 0))
      (scale (xyz 1 1 1))
      (rotate (xyz 0 0 0))
    )
  )

  (module Resistors_SMD:R_1206_HandSoldering (layer F.Cu) (tedit 57D15424) (tstamp 57D9DD98)
    (at 70.8 117.2 90)
    (descr "Resistor SMD 1206, hand soldering")
    (tags "resistor 1206")
    (path /57CEBF36)
    (attr smd)
    (fp_text reference 5R6_2 (at 0 -2.3 90) (layer F.SilkS) hide
      (effects (font (size 1 1) (thickness 0.15)))
    )
    (fp_text value R (at 0 2.3 90) (layer F.Fab)
      (effects (font (size 1 1) (thickness 0.15)))
    )
    (fp_line (start -3.3 -1.2) (end 3.3 -1.2) (layer F.CrtYd) (width 0.05))
    (fp_line (start -3.3 1.2) (end 3.3 1.2) (layer F.CrtYd) (width 0.05))
    (fp_line (start -3.3 -1.2) (end -3.3 1.2) (layer F.CrtYd) (width 0.05))
    (fp_line (start 3.3 -1.2) (end 3.3 1.2) (layer F.CrtYd) (width 0.05))
    (fp_line (start 1 1.075) (end -1 1.075) (layer F.SilkS) (width 0.15))
    (fp_line (start -1 -1.075) (end 1 -1.075) (layer F.SilkS) (width 0.15))
    (pad 1 smd rect (at -2 0 90) (size 2 1.7) (layers F.Cu F.Paste F.Mask)
      (net 3 "Net-(5R6_2-Pad1)"))
    (pad 2 smd rect (at 2 0 90) (size 2 1.7) (layers F.Cu F.Paste F.Mask)
      (net 2 GND))
    (model Resistors_SMD.3dshapes/R_1206_HandSoldering.wrl
      (at (xyz 0 0 0))
      (scale (xyz 1 1 1))
      (rotate (xyz 0 0 0))
    )
  )

  (module Resistors_SMD:R_1206_HandSoldering (layer F.Cu) (tedit 57D15432) (tstamp 57D9DDA4)
    (at 63.3 117.2 90)
    (descr "Resistor SMD 1206, hand soldering")
    (tags "resistor 1206")
    (path /57CEC083)
    (attr smd)
    (fp_text reference 5R6_3 (at 0 -2.3 90) (layer F.SilkS) hide
      (effects (font (size 1 1) (thickness 0.15)))
    )
    (fp_text value R (at 0 2.3 90) (layer F.Fab)
      (effects (font (size 1 1) (thickness 0.15)))
    )
    (fp_line (start -3.3 -1.2) (end 3.3 -1.2) (layer F.CrtYd) (width 0.05))
    (fp_line (start -3.3 1.2) (end 3.3 1.2) (layer F.CrtYd) (width 0.05))
    (fp_line (start -3.3 -1.2) (end -3.3 1.2) (layer F.CrtYd) (width 0.05))
    (fp_line (start 3.3 -1.2) (end 3.3 1.2) (layer F.CrtYd) (width 0.05))
    (fp_line (start 1 1.075) (end -1 1.075) (layer F.SilkS) (width 0.15))
    (fp_line (start -1 -1.075) (end 1 -1.075) (layer F.SilkS) (width 0.15))
    (pad 1 smd rect (at -2 0 90) (size 2 1.7) (layers F.Cu F.Paste F.Mask)
      (net 4 "Net-(5R6_3-Pad1)"))
    (pad 2 smd rect (at 2 0 90) (size 2 1.7) (layers F.Cu F.Paste F.Mask)
      (net 2 GND))
    (model Resistors_SMD.3dshapes/R_1206_HandSoldering.wrl
      (at (xyz 0 0 0))
      (scale (xyz 1 1 1))
      (rotate (xyz 0 0 0))
    )
  )

  (module Resistors_SMD:R_1206_HandSoldering (layer F.Cu) (tedit 57D15439) (tstamp 57D9DDB0)
    (at 56.7 117.2 90)
    (descr "Resistor SMD 1206, hand soldering")
    (tags "resistor 1206")
    (path /57CEC125)
    (attr smd)
    (fp_text reference 5R6_4 (at 0 -2.3 90) (layer F.SilkS) hide
      (effects (font (size 1 1) (thickness 0.15)))
    )
    (fp_text value R (at 0 2.3 90) (layer F.Fab)
      (effects (font (size 1 1) (thickness 0.15)))
    )
    (fp_line (start -3.3 -1.2) (end 3.3 -1.2) (layer F.CrtYd) (width 0.05))
    (fp_line (start -3.3 1.2) (end 3.3 1.2) (layer F.CrtYd) (width 0.05))
    (fp_line (start -3.3 -1.2) (end -3.3 1.2) (layer F.CrtYd) (width 0.05))
    (fp_line (start 3.3 -1.2) (end 3.3 1.2) (layer F.CrtYd) (width 0.05))
    (fp_line (start 1 1.075) (end -1 1.075) (layer F.SilkS) (width 0.15))
    (fp_line (start -1 -1.075) (end 1 -1.075) (layer F.SilkS) (width 0.15))
    (pad 1 smd rect (at -2 0 90) (size 2 1.7) (layers F.Cu F.Paste F.Mask)
      (net 5 "Net-(5R6_4-Pad1)"))
    (pad 2 smd rect (at 2 0 90) (size 2 1.7) (layers F.Cu F.Paste F.Mask)
      (net 2 GND))
    (model Resistors_SMD.3dshapes/R_1206_HandSoldering.wrl
      (at (xyz 0 0 0))
      (scale (xyz 1 1 1))
      (rotate (xyz 0 0 0))
    )
  )

  (module Pin_Headers:Pin_Header_Straight_1x01 (layer F.Cu) (tedit 57D15403) (tstamp 57D9DDBD)
    (at 79.8 123)
    (descr "Through hole pin header")
    (tags "pin header")
    (path /57CF0FBA)
    (fp_text reference VCC (at 3 0) (layer F.SilkS)
      (effects (font (size 1 1) (thickness 0.15)))
    )
    (fp_text value CONN_01X01 (at 0 -3.1) (layer F.Fab)
      (effects (font (size 1 1) (thickness 0.15)))
    )
    (fp_line (start 1.55 -1.55) (end 1.55 0) (layer F.SilkS) (width 0.15))
    (fp_line (start -1.75 -1.75) (end -1.75 1.75) (layer F.CrtYd) (width 0.05))
    (fp_line (start 1.75 -1.75) (end 1.75 1.75) (layer F.CrtYd) (width 0.05))
    (fp_line (start -1.75 -1.75) (end 1.75 -1.75) (layer F.CrtYd) (width 0.05))
    (fp_line (start -1.75 1.75) (end 1.75 1.75) (layer F.CrtYd) (width 0.05))
    (fp_line (start -1.55 0) (end -1.55 -1.55) (layer F.SilkS) (width 0.15))
    (fp_line (start -1.55 -1.55) (end 1.55 -1.55) (layer F.SilkS) (width 0.15))
    (fp_line (start -1.27 1.27) (end 1.27 1.27) (layer F.SilkS) (width 0.15))
    (pad 1 thru_hole rect (at 0 0) (size 2.2352 2.2352) (drill 1.016) (layers *.Cu *.Mask F.SilkS)
      (net 6 /VCC))
    (model Pin_Headers.3dshapes/Pin_Header_Straight_1x01.wrl
      (at (xyz 0 0 0))
      (scale (xyz 1 1 1))
      (rotate (xyz 0 0 90))
    )
  )

  (module Pin_Headers:Pin_Header_Straight_1x01 (layer F.Cu) (tedit 57D153D2) (tstamp 57D9DDCA)
    (at 59.2 125.4)
    (descr "Through hole pin header")
    (tags "pin header")
    (path /57CFF28C)
    (fp_text reference GND (at 0.2 -2.3) (layer F.SilkS)
      (effects (font (size 1 1) (thickness 0.15)))
    )
    (fp_text value CONN_01X01 (at 0 -3.1) (layer F.Fab)
      (effects (font (size 1 1) (thickness 0.15)))
    )
    (fp_line (start 1.55 -1.55) (end 1.55 0) (layer F.SilkS) (width 0.15))
    (fp_line (start -1.75 -1.75) (end -1.75 1.75) (layer F.CrtYd) (width 0.05))
    (fp_line (start 1.75 -1.75) (end 1.75 1.75) (layer F.CrtYd) (width 0.05))
    (fp_line (start -1.75 -1.75) (end 1.75 -1.75) (layer F.CrtYd) (width 0.05))
    (fp_line (start -1.75 1.75) (end 1.75 1.75) (layer F.CrtYd) (width 0.05))
    (fp_line (start -1.55 0) (end -1.55 -1.55) (layer F.SilkS) (width 0.15))
    (fp_line (start -1.55 -1.55) (end 1.55 -1.55) (layer F.SilkS) (width 0.15))
    (fp_line (start -1.27 1.27) (end 1.27 1.27) (layer F.SilkS) (width 0.15))
    (pad 1 thru_hole rect (at 0 0) (size 2.2352 2.2352) (drill 1.016) (layers *.Cu *.Mask F.SilkS)
      (net 2 GND))
    (model Pin_Headers.3dshapes/Pin_Header_Straight_1x01.wrl
      (at (xyz 0 0 0))
      (scale (xyz 1 1 1))
      (rotate (xyz 0 0 90))
    )
  )

  (module Pin_Headers:Pin_Header_Straight_1x01 (layer F.Cu) (tedit 57D152F6) (tstamp 57D9DDD7)
    (at 70 130)
    (descr "Through hole pin header")
    (tags "pin header")
    (path /57CFD28D)
    (fp_text reference KEY (at 0.1 -1.7) (layer F.SilkS)
      (effects (font (size 1 1) (thickness 0.15)))
    )
    (fp_text value CONN_01X01 (at 0 -3.1) (layer F.Fab)
      (effects (font (size 1 1) (thickness 0.15)))
    )
    (fp_line (start 1.55 -1.55) (end 1.55 0) (layer F.SilkS) (width 0.15))
    (fp_line (start -1.75 -1.75) (end -1.75 1.75) (layer F.CrtYd) (width 0.05))
    (fp_line (start 1.75 -1.75) (end 1.75 1.75) (layer F.CrtYd) (width 0.05))
    (fp_line (start -1.75 -1.75) (end 1.75 -1.75) (layer F.CrtYd) (width 0.05))
    (fp_line (start -1.75 1.75) (end 1.75 1.75) (layer F.CrtYd) (width 0.05))
    (fp_line (start -1.55 0) (end -1.55 -1.55) (layer F.SilkS) (width 0.15))
    (fp_line (start -1.55 -1.55) (end 1.55 -1.55) (layer F.SilkS) (width 0.15))
    (fp_line (start -1.27 1.27) (end 1.27 1.27) (layer F.SilkS) (width 0.15))
    (pad 1 thru_hole rect (at 0 0) (size 2.2352 2.2352) (drill 1.016) (layers *.Cu *.Mask F.SilkS)
      (net 7 /BTN))
    (model Pin_Headers.3dshapes/Pin_Header_Straight_1x01.wrl
      (at (xyz 0 0 0))
      (scale (xyz 1 1 1))
      (rotate (xyz 0 0 90))
    )
  )

  (module Capacitors_SMD:C_1206_HandSoldering (layer F.Cu) (tedit 57D131CF) (tstamp 57D9DDE3)
    (at 70.1 124.4 90)
    (descr "Capacitor SMD 1206, hand soldering")
    (tags "capacitor 1206")
    (path /57D0B1D9)
    (attr smd)
    (fp_text reference C1 (at -0.1 0 90) (layer F.SilkS)
      (effects (font (size 1 1) (thickness 0.15)))
    )
    (fp_text value C_Small (at 0 2.3 90) (layer F.Fab)
      (effects (font (size 1 1) (thickness 0.15)))
    )
    (fp_line (start -3.3 -1.15) (end 3.3 -1.15) (layer F.CrtYd) (width 0.05))
    (fp_line (start -3.3 1.15) (end 3.3 1.15) (layer F.CrtYd) (width 0.05))
    (fp_line (start -3.3 -1.15) (end -3.3 1.15) (layer F.CrtYd) (width 0.05))
    (fp_line (start 3.3 -1.15) (end 3.3 1.15) (layer F.CrtYd) (width 0.05))
    (fp_line (start 1 -1.025) (end -1 -1.025) (layer F.SilkS) (width 0.15))
    (fp_line (start -1 1.025) (end 1 1.025) (layer F.SilkS) (width 0.15))
    (pad 1 smd rect (at -2 0 90) (size 2 1.6) (layers F.Cu F.Paste F.Mask)
      (net 6 /VCC))
    (pad 2 smd rect (at 2 0 90) (size 2 1.6) (layers F.Cu F.Paste F.Mask)
      (net 2 GND))
    (model Capacitors_SMD.3dshapes/C_1206_HandSoldering.wrl
      (at (xyz 0 0 0))
      (scale (xyz 1 1 1))
      (rotate (xyz 0 0 0))
    )
  )

  (module Measurement_Points:Measurement_Point_Round-SMD-Pad_Small (layer B.Cu) (tedit 57D15338) (tstamp 57D9DDE9)
    (at 66.27 124.99 270)
    (descr "Mesurement Point, Round, SMD Pad, DM 1.5mm,")
    (tags "Mesurement Point Round SMD Pad 1.5mm")
    (path /57D0675D)
    (attr virtual)
    (fp_text reference GND (at -0.09 -2.43 360) (layer B.SilkS)
      (effects (font (size 1 1) (thickness 0.15)) (justify mirror))
    )
    (fp_text value GND1 (at 0 -2 270) (layer B.Fab)
      (effects (font (size 1 1) (thickness 0.15)) (justify mirror))
    )
    (fp_circle (center 0 0) (end 1 0) (layer B.CrtYd) (width 0.05))
    (pad 1 smd circle (at 0 0 270) (size 1.5 1.5) (layers B.Cu B.Mask)
      (net 2 GND))
  )

  (module Pin_Headers:Pin_Header_Straight_1x01 (layer F.Cu) (tedit 57D15312) (tstamp 57D9DE12)
    (at 59.1 130.1)
    (descr "Through hole pin header")
    (tags "pin header")
    (path /57CEF8FF)
    (fp_text reference LED- (at 0.3 -2.1) (layer F.SilkS)
      (effects (font (size 1 1) (thickness 0.15)))
    )
    (fp_text value CONN_01X01 (at 0 -3.1) (layer F.Fab)
      (effects (font (size 1 1) (thickness 0.15)))
    )
    (fp_line (start 1.55 -1.55) (end 1.55 0) (layer F.SilkS) (width 0.15))
    (fp_line (start -1.75 -1.75) (end -1.75 1.75) (layer F.CrtYd) (width 0.05))
    (fp_line (start 1.75 -1.75) (end 1.75 1.75) (layer F.CrtYd) (width 0.05))
    (fp_line (start -1.75 -1.75) (end 1.75 -1.75) (layer F.CrtYd) (width 0.05))
    (fp_line (start -1.75 1.75) (end 1.75 1.75) (layer F.CrtYd) (width 0.05))
    (fp_line (start -1.55 0) (end -1.55 -1.55) (layer F.SilkS) (width 0.15))
    (fp_line (start -1.55 -1.55) (end 1.55 -1.55) (layer F.SilkS) (width 0.15))
    (fp_line (start -1.27 1.27) (end 1.27 1.27) (layer F.SilkS) (width 0.15))
    (pad 1 thru_hole rect (at 0 0) (size 2.2352 2.2352) (drill 1.016) (layers *.Cu *.Mask F.SilkS)
      (net 13 "Net-(LED-_1-Pad1)"))
    (model Pin_Headers.3dshapes/Pin_Header_Straight_1x01.wrl
      (at (xyz 0 0 0))
      (scale (xyz 1 1 1))
      (rotate (xyz 0 0 90))
    )
  )

  (module Measurement_Points:Measurement_Point_Round-SMD-Pad_Small (layer B.Cu) (tedit 57D15355) (tstamp 57D9DE18)
    (at 66.27 127.53 270)
    (descr "Mesurement Point, Round, SMD Pad, DM 1.5mm,")
    (tags "Mesurement Point Round SMD Pad 1.5mm")
    (path /57D066CB)
    (attr virtual)
    (fp_text reference MISO (at 0.07 -2.83 360) (layer B.SilkS)
      (effects (font (size 1 1) (thickness 0.15)) (justify mirror))
    )
    (fp_text value TEST_1P (at 0 -2 270) (layer B.Fab)
      (effects (font (size 1 1) (thickness 0.15)) (justify mirror))
    )
    (fp_circle (center 0 0) (end 1 0) (layer B.CrtYd) (width 0.05))
    (pad 1 smd circle (at 0 0 270) (size 1.5 1.5) (layers B.Cu B.Mask)
      (net 12 /LED3))
  )

  (module Measurement_Points:Measurement_Point_Round-SMD-Pad_Small (layer B.Cu) (tedit 57D15377) (tstamp 57D9DE1E)
    (at 66.27 130.07 270)
    (descr "Mesurement Point, Round, SMD Pad, DM 1.5mm,")
    (tags "Mesurement Point Round SMD Pad 1.5mm")
    (path /57D06714)
    (attr virtual)
    (fp_text reference MOSI (at 1.63 -0.73 360) (layer B.SilkS)
      (effects (font (size 1 1) (thickness 0.15)) (justify mirror))
    )
    (fp_text value TEST_1P (at 0 -2 270) (layer B.Fab)
      (effects (font (size 1 1) (thickness 0.15)) (justify mirror))
    )
    (fp_circle (center 0 0) (end 1 0) (layer B.CrtYd) (width 0.05))
    (pad 1 smd circle (at 0 0 270) (size 1.5 1.5) (layers B.Cu B.Mask)
      (net 11 /LED4))
  )

  (module TO_SOT_Packages_SMD:SOT-23 (layer F.Cu) (tedit 57D153E8) (tstamp 57D9DE66)
    (at 74.9 115.6 90)
    (descr "SOT-23, Standard")
    (tags SOT-23)
    (path /57CECE31)
    (attr smd)
    (fp_text reference Q3 (at 0 -2.25 90) (layer F.SilkS) hide
      (effects (font (size 1 1) (thickness 0.15)))
    )
    (fp_text value Q_NPN_BEC (at 0 2.3 90) (layer F.Fab)
      (effects (font (size 1 1) (thickness 0.15)))
    )
    (fp_line (start -1.65 -1.6) (end 1.65 -1.6) (layer F.CrtYd) (width 0.05))
    (fp_line (start 1.65 -1.6) (end 1.65 1.6) (layer F.CrtYd) (width 0.05))
    (fp_line (start 1.65 1.6) (end -1.65 1.6) (layer F.CrtYd) (width 0.05))
    (fp_line (start -1.65 1.6) (end -1.65 -1.6) (layer F.CrtYd) (width 0.05))
    (fp_line (start 1.29916 -0.65024) (end 1.2509 -0.65024) (layer F.SilkS) (width 0.15))
    (fp_line (start -1.49982 0.0508) (end -1.49982 -0.65024) (layer F.SilkS) (width 0.15))
    (fp_line (start -1.49982 -0.65024) (end -1.2509 -0.65024) (layer F.SilkS) (width 0.15))
    (fp_line (start 1.29916 -0.65024) (end 1.49982 -0.65024) (layer F.SilkS) (width 0.15))
    (fp_line (start 1.49982 -0.65024) (end 1.49982 0.0508) (layer F.SilkS) (width 0.15))
    (pad 1 smd rect (at -0.95 1.00076 90) (size 0.8001 0.8001) (layers F.Cu F.Paste F.Mask)
      (net 1 "Net-(5R6_1-Pad1)"))
    (pad 2 smd rect (at 0.95 1.00076 90) (size 0.8001 0.8001) (layers F.Cu F.Paste F.Mask)
      (net 2 GND))
    (pad 3 smd rect (at 0 -0.99822 90) (size 0.8001 0.8001) (layers F.Cu F.Paste F.Mask)
      (net 14 "Net-(Q1-Pad2)"))
    (model TO_SOT_Packages_SMD.3dshapes/SOT-23.wrl
      (at (xyz 0 0 0))
      (scale (xyz 1 1 1))
      (rotate (xyz 0 0 0))
    )
  )

  (module TO_SOT_Packages_SMD:SOT-23 (layer F.Cu) (tedit 57D153E3) (tstamp 57D9DE76)
    (at 67.5 115.5 90)
    (descr "SOT-23, Standard")
    (tags SOT-23)
    (path /57CECCDE)
    (attr smd)
    (fp_text reference Q4 (at 0 -2.25 90) (layer F.SilkS) hide
      (effects (font (size 1 1) (thickness 0.15)))
    )
    (fp_text value Q_NPN_BEC (at 0 2.3 90) (layer F.Fab)
      (effects (font (size 1 1) (thickness 0.15)))
    )
    (fp_line (start -1.65 -1.6) (end 1.65 -1.6) (layer F.CrtYd) (width 0.05))
    (fp_line (start 1.65 -1.6) (end 1.65 1.6) (layer F.CrtYd) (width 0.05))
    (fp_line (start 1.65 1.6) (end -1.65 1.6) (layer F.CrtYd) (width 0.05))
    (fp_line (start -1.65 1.6) (end -1.65 -1.6) (layer F.CrtYd) (width 0.05))
    (fp_line (start 1.29916 -0.65024) (end 1.2509 -0.65024) (layer F.SilkS) (width 0.15))
    (fp_line (start -1.49982 0.0508) (end -1.49982 -0.65024) (layer F.SilkS) (width 0.15))
    (fp_line (start -1.49982 -0.65024) (end -1.2509 -0.65024) (layer F.SilkS) (width 0.15))
    (fp_line (start 1.29916 -0.65024) (end 1.49982 -0.65024) (layer F.SilkS) (width 0.15))
    (fp_line (start 1.49982 -0.65024) (end 1.49982 0.0508) (layer F.SilkS) (width 0.15))
    (pad 1 smd rect (at -0.95 1.00076 90) (size 0.8001 0.8001) (layers F.Cu F.Paste F.Mask)
      (net 3 "Net-(5R6_2-Pad1)"))
    (pad 2 smd rect (at 0.95 1.00076 90) (size 0.8001 0.8001) (layers F.Cu F.Paste F.Mask)
      (net 2 GND))
    (pad 3 smd rect (at 0 -0.99822 90) (size 0.8001 0.8001) (layers F.Cu F.Paste F.Mask)
      (net 15 "Net-(Q1-Pad4)"))
    (model TO_SOT_Packages_SMD.3dshapes/SOT-23.wrl
      (at (xyz 0 0 0))
      (scale (xyz 1 1 1))
      (rotate (xyz 0 0 0))
    )
  )

  (module TO_SOT_Packages_SMD:SOT-23 (layer F.Cu) (tedit 57D153DF) (tstamp 57D9DE86)
    (at 60.3 115.6 90)
    (descr "SOT-23, Standard")
    (tags SOT-23)
    (path /57CECD95)
    (attr smd)
    (fp_text reference Q5 (at 0 -2.25 90) (layer F.SilkS) hide
      (effects (font (size 1 1) (thickness 0.15)))
    )
    (fp_text value Q_NPN_BEC (at 0 2.3 90) (layer F.Fab)
      (effects (font (size 1 1) (thickness 0.15)))
    )
    (fp_line (start -1.65 -1.6) (end 1.65 -1.6) (layer F.CrtYd) (width 0.05))
    (fp_line (start 1.65 -1.6) (end 1.65 1.6) (layer F.CrtYd) (width 0.05))
    (fp_line (start 1.65 1.6) (end -1.65 1.6) (layer F.CrtYd) (width 0.05))
    (fp_line (start -1.65 1.6) (end -1.65 -1.6) (layer F.CrtYd) (width 0.05))
    (fp_line (start 1.29916 -0.65024) (end 1.2509 -0.65024) (layer F.SilkS) (width 0.15))
    (fp_line (start -1.49982 0.0508) (end -1.49982 -0.65024) (layer F.SilkS) (width 0.15))
    (fp_line (start -1.49982 -0.65024) (end -1.2509 -0.65024) (layer F.SilkS) (width 0.15))
    (fp_line (start 1.29916 -0.65024) (end 1.49982 -0.65024) (layer F.SilkS) (width 0.15))
    (fp_line (start 1.49982 -0.65024) (end 1.49982 0.0508) (layer F.SilkS) (width 0.15))
    (pad 1 smd rect (at -0.95 1.00076 90) (size 0.8001 0.8001) (layers F.Cu F.Paste F.Mask)
      (net 4 "Net-(5R6_3-Pad1)"))
    (pad 2 smd rect (at 0.95 1.00076 90) (size 0.8001 0.8001) (layers F.Cu F.Paste F.Mask)
      (net 2 GND))
    (pad 3 smd rect (at 0 -0.99822 90) (size 0.8001 0.8001) (layers F.Cu F.Paste F.Mask)
      (net 16 "Net-(Q2-Pad2)"))
    (model TO_SOT_Packages_SMD.3dshapes/SOT-23.wrl
      (at (xyz 0 0 0))
      (scale (xyz 1 1 1))
      (rotate (xyz 0 0 0))
    )
  )

  (module TO_SOT_Packages_SMD:SOT-23 (layer F.Cu) (tedit 57D153DB) (tstamp 57D9DE96)
    (at 53.1 115.6 90)
    (descr "SOT-23, Standard")
    (tags SOT-23)
    (path /57CECDF8)
    (attr smd)
    (fp_text reference Q6 (at 0 -2.25 90) (layer F.SilkS) hide
      (effects (font (size 1 1) (thickness 0.15)))
    )
    (fp_text value Q_NPN_BEC (at 0 2.3 90) (layer F.Fab)
      (effects (font (size 1 1) (thickness 0.15)))
    )
    (fp_line (start -1.65 -1.6) (end 1.65 -1.6) (layer F.CrtYd) (width 0.05))
    (fp_line (start 1.65 -1.6) (end 1.65 1.6) (layer F.CrtYd) (width 0.05))
    (fp_line (start 1.65 1.6) (end -1.65 1.6) (layer F.CrtYd) (width 0.05))
    (fp_line (start -1.65 1.6) (end -1.65 -1.6) (layer F.CrtYd) (width 0.05))
    (fp_line (start 1.29916 -0.65024) (end 1.2509 -0.65024) (layer F.SilkS) (width 0.15))
    (fp_line (start -1.49982 0.0508) (end -1.49982 -0.65024) (layer F.SilkS) (width 0.15))
    (fp_line (start -1.49982 -0.65024) (end -1.2509 -0.65024) (layer F.SilkS) (width 0.15))
    (fp_line (start 1.29916 -0.65024) (end 1.49982 -0.65024) (layer F.SilkS) (width 0.15))
    (fp_line (start 1.49982 -0.65024) (end 1.49982 0.0508) (layer F.SilkS) (width 0.15))
    (pad 1 smd rect (at -0.95 1.00076 90) (size 0.8001 0.8001) (layers F.Cu F.Paste F.Mask)
      (net 5 "Net-(5R6_4-Pad1)"))
    (pad 2 smd rect (at 0.95 1.00076 90) (size 0.8001 0.8001) (layers F.Cu F.Paste F.Mask)
      (net 2 GND))
    (pad 3 smd rect (at 0 -0.99822 90) (size 0.8001 0.8001) (layers F.Cu F.Paste F.Mask)
      (net 17 "Net-(Q2-Pad4)"))
    (model TO_SOT_Packages_SMD.3dshapes/SOT-23.wrl
      (at (xyz 0 0 0))
      (scale (xyz 1 1 1))
      (rotate (xyz 0 0 0))
    )
  )

  (module Resistors_SMD:R_0805_HandSoldering (layer F.Cu) (tedit 57D15413) (tstamp 57D9DEA2)
    (at 74.2 119.8 270)
    (descr "Resistor SMD 0805, hand soldering")
    (tags "resistor 0805")
    (path /57CEC926)
    (attr smd)
    (fp_text reference R4K7_2 (at 0 -2.1 270) (layer F.SilkS) hide
      (effects (font (size 1 1) (thickness 0.15)))
    )
    (fp_text value R (at 0 2.1 270) (layer F.Fab)
      (effects (font (size 1 1) (thickness 0.15)))
    )
    (fp_line (start -2.4 -1) (end 2.4 -1) (layer F.CrtYd) (width 0.05))
    (fp_line (start -2.4 1) (end 2.4 1) (layer F.CrtYd) (width 0.05))
    (fp_line (start -2.4 -1) (end -2.4 1) (layer F.CrtYd) (width 0.05))
    (fp_line (start 2.4 -1) (end 2.4 1) (layer F.CrtYd) (width 0.05))
    (fp_line (start 0.6 0.875) (end -0.6 0.875) (layer F.SilkS) (width 0.15))
    (fp_line (start -0.6 -0.875) (end 0.6 -0.875) (layer F.SilkS) (width 0.15))
    (pad 1 smd rect (at -1.35 0 270) (size 1.5 1.3) (layers F.Cu F.Paste F.Mask)
      (net 14 "Net-(Q1-Pad2)"))
    (pad 2 smd rect (at 1.35 0 270) (size 1.5 1.3) (layers F.Cu F.Paste F.Mask)
      (net 10 /LED1))
    (model Resistors_SMD.3dshapes/R_0805_HandSoldering.wrl
      (at (xyz 0 0 0))
      (scale (xyz 1 1 1))
      (rotate (xyz 0 0 0))
    )
  )

  (module Resistors_SMD:R_0805_HandSoldering (layer F.Cu) (tedit 57D15427) (tstamp 57D9DEAE)
    (at 66.8 119.7 270)
    (descr "Resistor SMD 0805, hand soldering")
    (tags "resistor 0805")
    (path /57CEC828)
    (attr smd)
    (fp_text reference R4K7_3 (at 0 -2.1 270) (layer F.SilkS) hide
      (effects (font (size 1 1) (thickness 0.15)))
    )
    (fp_text value R (at 0 2.1 270) (layer F.Fab)
      (effects (font (size 1 1) (thickness 0.15)))
    )
    (fp_line (start -2.4 -1) (end 2.4 -1) (layer F.CrtYd) (width 0.05))
    (fp_line (start -2.4 1) (end 2.4 1) (layer F.CrtYd) (width 0.05))
    (fp_line (start -2.4 -1) (end -2.4 1) (layer F.CrtYd) (width 0.05))
    (fp_line (start 2.4 -1) (end 2.4 1) (layer F.CrtYd) (width 0.05))
    (fp_line (start 0.6 0.875) (end -0.6 0.875) (layer F.SilkS) (width 0.15))
    (fp_line (start -0.6 -0.875) (end 0.6 -0.875) (layer F.SilkS) (width 0.15))
    (pad 1 smd rect (at -1.35 0 270) (size 1.5 1.3) (layers F.Cu F.Paste F.Mask)
      (net 15 "Net-(Q1-Pad4)"))
    (pad 2 smd rect (at 1.35 0 270) (size 1.5 1.3) (layers F.Cu F.Paste F.Mask)
      (net 9 /LED2))
    (model Resistors_SMD.3dshapes/R_0805_HandSoldering.wrl
      (at (xyz 0 0 0))
      (scale (xyz 1 1 1))
      (rotate (xyz 0 0 0))
    )
  )

  (module Resistors_SMD:R_0805_HandSoldering (layer F.Cu) (tedit 57D1543C) (tstamp 57D9DEBA)
    (at 52.4 119.8 270)
    (descr "Resistor SMD 0805, hand soldering")
    (tags "resistor 0805")
    (path /57CEC504)
    (attr smd)
    (fp_text reference R4K7_4 (at 0 -2.1 270) (layer F.SilkS) hide
      (effects (font (size 1 1) (thickness 0.15)))
    )
    (fp_text value R (at 0 2.1 270) (layer F.Fab)
      (effects (font (size 1 1) (thickness 0.15)))
    )
    (fp_line (start -2.4 -1) (end 2.4 -1) (layer F.CrtYd) (width 0.05))
    (fp_line (start -2.4 1) (end 2.4 1) (layer F.CrtYd) (width 0.05))
    (fp_line (start -2.4 -1) (end -2.4 1) (layer F.CrtYd) (width 0.05))
    (fp_line (start 2.4 -1) (end 2.4 1) (layer F.CrtYd) (width 0.05))
    (fp_line (start 0.6 0.875) (end -0.6 0.875) (layer F.SilkS) (width 0.15))
    (fp_line (start -0.6 -0.875) (end 0.6 -0.875) (layer F.SilkS) (width 0.15))
    (pad 1 smd rect (at -1.35 0 270) (size 1.5 1.3) (layers F.Cu F.Paste F.Mask)
      (net 17 "Net-(Q2-Pad4)"))
    (pad 2 smd rect (at 1.35 0 270) (size 1.5 1.3) (layers F.Cu F.Paste F.Mask)
      (net 11 /LED4))
    (model Resistors_SMD.3dshapes/R_0805_HandSoldering.wrl
      (at (xyz 0 0 0))
      (scale (xyz 1 1 1))
      (rotate (xyz 0 0 0))
    )
  )

  (module Resistors_SMD:R_0805_HandSoldering (layer F.Cu) (tedit 57D15435) (tstamp 57D9DEC6)
    (at 59.7 119.8 270)
    (descr "Resistor SMD 0805, hand soldering")
    (tags "resistor 0805")
    (path /57CEC6DF)
    (attr smd)
    (fp_text reference R4K7_5 (at 0 -2.1 270) (layer F.SilkS) hide
      (effects (font (size 1 1) (thickness 0.15)))
    )
    (fp_text value R (at 0 2.1 270) (layer F.Fab)
      (effects (font (size 1 1) (thickness 0.15)))
    )
    (fp_line (start -2.4 -1) (end 2.4 -1) (layer F.CrtYd) (width 0.05))
    (fp_line (start -2.4 1) (end 2.4 1) (layer F.CrtYd) (width 0.05))
    (fp_line (start -2.4 -1) (end -2.4 1) (layer F.CrtYd) (width 0.05))
    (fp_line (start 2.4 -1) (end 2.4 1) (layer F.CrtYd) (width 0.05))
    (fp_line (start 0.6 0.875) (end -0.6 0.875) (layer F.SilkS) (width 0.15))
    (fp_line (start -0.6 -0.875) (end 0.6 -0.875) (layer F.SilkS) (width 0.15))
    (pad 1 smd rect (at -1.35 0 270) (size 1.5 1.3) (layers F.Cu F.Paste F.Mask)
      (net 16 "Net-(Q2-Pad2)"))
    (pad 2 smd rect (at 1.35 0 270) (size 1.5 1.3) (layers F.Cu F.Paste F.Mask)
      (net 12 /LED3))
    (model Resistors_SMD.3dshapes/R_0805_HandSoldering.wrl
      (at (xyz 0 0 0))
      (scale (xyz 1 1 1))
      (rotate (xyz 0 0 0))
    )
  )

  (module Measurement_Points:Measurement_Point_Round-SMD-Pad_Small (layer B.Cu) (tedit 57D153AF) (tstamp 57D9DECC)
    (at 63.73 124.99 270)
    (descr "Mesurement Point, Round, SMD Pad, DM 1.5mm,")
    (tags "Mesurement Point Round SMD Pad 1.5mm")
    (path /57D0661D)
    (attr virtual)
    (fp_text reference RST (at -1.69 0.23 360) (layer B.SilkS)
      (effects (font (size 1 1) (thickness 0.15)) (justify mirror))
    )
    (fp_text value TEST_1P (at 0 -2 270) (layer B.Fab)
      (effects (font (size 1 1) (thickness 0.15)) (justify mirror))
    )
    (fp_circle (center 0 0) (end 1 0) (layer B.CrtYd) (width 0.05))
    (pad 1 smd circle (at 0 0 270) (size 1.5 1.5) (layers B.Cu B.Mask)
      (net 8 /POT))
  )

  (module smiley-library:BOURNS-3362P_pot (layer F.Cu) (tedit 57CFC8AF) (tstamp 57D9DED9)
    (at 90.5 123 90)
    (path /57CFC2B7)
    (fp_text reference RV10K_1 (at 0 5.08 90) (layer Cmts.User)
      (effects (font (size 0.762 0.762) (thickness 0.1524)))
    )
    (fp_text value POT (at 0 0 90) (layer F.SilkS) hide
      (effects (font (size 0.762 0.762) (thickness 0.1524)))
    )
    (fp_line (start -3.5 1.5) (end -3.5 -3.5) (layer F.SilkS) (width 0.381))
    (fp_line (start -1.5 3.5) (end 3.5 3.5) (layer F.SilkS) (width 0.381))
    (fp_line (start -3.5 1.5) (end -1.5 3.5) (layer F.SilkS) (width 0.381))
    (fp_circle (center -3 3) (end -3 3.5) (layer F.SilkS) (width 0.381))
    (fp_line (start -3.5 -3.5) (end 3.5 -3.5) (layer F.SilkS) (width 0.381))
    (fp_line (start 3.5 -3.5) (end 3.5 3.5) (layer F.SilkS) (width 0.381))
    (pad 1 thru_hole rect (at -2.54 0 90) (size 1.4 1.4) (drill 0.7) (layers *.Cu *.Mask F.SilkS)
      (net 2 GND))
    (pad 3 thru_hole circle (at 2.54 0 90) (size 1.4 1.4) (drill 0.7) (layers *.Cu *.Mask F.SilkS)
      (net 6 /VCC))
    (pad 2 thru_hole circle (at 0 -2.54 90) (size 1.4 1.4) (drill 0.7) (layers *.Cu *.Mask F.SilkS)
      (net 8 /POT))
  )

  (module Measurement_Points:Measurement_Point_Round-SMD-Pad_Small (layer B.Cu) (tedit 57D153B2) (tstamp 57D9DEDF)
    (at 63.73 127.53 270)
    (descr "Mesurement Point, Round, SMD Pad, DM 1.5mm,")
    (tags "Mesurement Point Round SMD Pad 1.5mm")
    (path /57D06686)
    (attr virtual)
    (fp_text reference SCK (at 0.07 2.43 360) (layer B.SilkS)
      (effects (font (size 1 1) (thickness 0.15)) (justify mirror))
    )
    (fp_text value TEST_1P (at 0 -2 270) (layer B.Fab)
      (effects (font (size 1 1) (thickness 0.15)) (justify mirror))
    )
    (fp_circle (center 0 0) (end 1 0) (layer B.CrtYd) (width 0.05))
    (pad 1 smd circle (at 0 0 270) (size 1.5 1.5) (layers B.Cu B.Mask)
      (net 7 /BTN))
  )

  (module Measurement_Points:Measurement_Point_Round-SMD-Pad_Small (layer B.Cu) (tedit 57D153B5) (tstamp 57D9DEE5)
    (at 63.73 130.07 270)
    (descr "Mesurement Point, Round, SMD Pad, DM 1.5mm,")
    (tags "Mesurement Point Round SMD Pad 1.5mm")
    (path /57D06594)
    (attr virtual)
    (fp_text reference VCC (at 1.83 0.33 360) (layer B.SilkS)
      (effects (font (size 1 1) (thickness 0.15)) (justify mirror))
    )
    (fp_text value TEST_1P (at 0 -2 270) (layer B.Fab)
      (effects (font (size 1 1) (thickness 0.15)) (justify mirror))
    )
    (fp_circle (center 0 0) (end 1 0) (layer B.CrtYd) (width 0.05))
    (pad 1 smd circle (at 0 0 270) (size 1.5 1.5) (layers B.Cu B.Mask)
      (net 6 /VCC))
  )

  (module smiley-library:SOIC-8_3.9x4.9mm_Pitch1.27mm (layer F.Cu) (tedit 57D15486) (tstamp 57D9DE3A)
    (at 74.8 127.3 270)
    (descr "8-Lead Plastic Small Outline (SN) - Narrow, 3.90 mm Body [SOIC] (see Microchip Packaging Specification 00000049BS.pdf)")
    (tags "SOIC 1.27")
    (path /57CEB9C6)
    (attr smd)
    (fp_text reference ME9926 (at 0 -0.5 360) (layer F.SilkS)
      (effects (font (size 1 1) (thickness 0.15)))
    )
    (fp_text value ME9926 (at 0 3.5 270) (layer F.Fab)
      (effects (font (size 1 1) (thickness 0.15)))
    )
    (fp_circle (center -1.5 -2) (end -1.75 -2) (layer F.SilkS) (width 0.15))
    (fp_line (start -1.95 -2.45) (end -1.95 2.45) (layer F.Fab) (width 0.15))
    (fp_line (start 1.95 -2.45) (end -1.95 -2.45) (layer F.Fab) (width 0.15))
    (fp_line (start 1.95 2.45) (end 1.95 -2.45) (layer F.Fab) (width 0.15))
    (fp_line (start -1.95 2.45) (end 1.95 2.45) (layer F.Fab) (width 0.15))
    (fp_line (start -3.75 -2.75) (end -3.75 2.75) (layer F.CrtYd) (width 0.05))
    (fp_line (start 3.75 -2.75) (end 3.75 2.75) (layer F.CrtYd) (width 0.05))
    (fp_line (start -3.75 -2.75) (end 3.75 -2.75) (layer F.CrtYd) (width 0.05))
    (fp_line (start -3.75 2.75) (end 3.75 2.75) (layer F.CrtYd) (width 0.05))
    (fp_line (start -2.075 -2.575) (end -2.075 -2.525) (layer F.SilkS) (width 0.15))
    (fp_line (start 2.075 -2.575) (end 2.075 -2.43) (layer F.SilkS) (width 0.15))
    (fp_line (start 2.075 2.575) (end 2.075 2.43) (layer F.SilkS) (width 0.15))
    (fp_line (start -2.075 2.575) (end -2.075 2.43) (layer F.SilkS) (width 0.15))
    (fp_line (start -2.075 -2.575) (end 2.075 -2.575) (layer F.SilkS) (width 0.15))
    (fp_line (start -2.075 2.575) (end 2.075 2.575) (layer F.SilkS) (width 0.15))
    (fp_line (start -2.075 -2.525) (end -3.475 -2.525) (layer F.SilkS) (width 0.15))
    (pad 1 smd rect (at -2.7 -1.905 270) (size 1.55 0.6) (layers F.Cu F.Paste F.Mask)
      (net 1 "Net-(5R6_1-Pad1)"))
    (pad 2 smd rect (at -2.7 -0.635 270) (size 1.55 0.6) (layers F.Cu F.Paste F.Mask)
      (net 14 "Net-(Q1-Pad2)"))
    (pad 3 smd rect (at -2.7 0.635 270) (size 1.55 0.6) (layers F.Cu F.Paste F.Mask)
      (net 3 "Net-(5R6_2-Pad1)"))
    (pad 4 smd rect (at -2.7 1.905 270) (size 1.55 0.6) (layers F.Cu F.Paste F.Mask)
      (net 15 "Net-(Q1-Pad4)"))
    (pad 5 smd rect (at 2.7 1.905 270) (size 1.55 0.6) (layers F.Cu F.Paste F.Mask)
      (net 13 "Net-(LED-_1-Pad1)"))
    (pad 6 smd rect (at 2.7 0.635 270) (size 1.55 0.6) (layers F.Cu F.Paste F.Mask)
      (net 13 "Net-(LED-_1-Pad1)"))
    (pad 7 smd rect (at 2.7 -0.635 270) (size 1.55 0.6) (layers F.Cu F.Paste F.Mask)
      (net 13 "Net-(LED-_1-Pad1)"))
    (pad 8 smd rect (at 2.7 -1.905 270) (size 1.55 0.6) (layers F.Cu F.Paste F.Mask)
      (net 13 "Net-(LED-_1-Pad1)"))
    (model Housings_SOIC.3dshapes/SOIC-8_3.9x4.9mm_Pitch1.27mm.wrl
      (at (xyz 0 0 0))
      (scale (xyz 1 1 1))
      (rotate (xyz 0 0 0))
    )
  )

  (module smiley-library:SOIC-8_3.9x4.9mm_Pitch1.27mm (layer F.Cu) (tedit 57D1555B) (tstamp 57D9DE05)
    (at 65 127.5 270)
    (descr "8-Lead Plastic Small Outline (SN) - Narrow, 3.90 mm Body [SOIC] (see Microchip Packaging Specification 00000049BS.pdf)")
    (tags "SOIC 1.27")
    (path /57CF087D)
    (attr smd)
    (fp_text reference TINY13 (at -0.2 0 360) (layer F.SilkS)
      (effects (font (size 1 1) (thickness 0.15)))
    )
    (fp_text value ATTINY13A-SS (at 0 3.5 270) (layer F.Fab)
      (effects (font (size 1 1) (thickness 0.15)))
    )
    (fp_circle (center -1.5 -2) (end -1.75 -2) (layer F.SilkS) (width 0.15))
    (fp_line (start -1.95 -2.45) (end -1.95 2.45) (layer F.Fab) (width 0.15))
    (fp_line (start 1.95 -2.45) (end -1.95 -2.45) (layer F.Fab) (width 0.15))
    (fp_line (start 1.95 2.45) (end 1.95 -2.45) (layer F.Fab) (width 0.15))
    (fp_line (start -1.95 2.45) (end 1.95 2.45) (layer F.Fab) (width 0.15))
    (fp_line (start -3.75 -2.75) (end -3.75 2.75) (layer F.CrtYd) (width 0.05))
    (fp_line (start 3.75 -2.75) (end 3.75 2.75) (layer F.CrtYd) (width 0.05))
    (fp_line (start -3.75 -2.75) (end 3.75 -2.75) (layer F.CrtYd) (width 0.05))
    (fp_line (start -3.75 2.75) (end 3.75 2.75) (layer F.CrtYd) (width 0.05))
    (fp_line (start -2.075 -2.575) (end -2.075 -2.525) (layer F.SilkS) (width 0.15))
    (fp_line (start 2.075 -2.575) (end 2.075 -2.43) (layer F.SilkS) (width 0.15))
    (fp_line (start 2.075 2.575) (end 2.075 2.43) (layer F.SilkS) (width 0.15))
    (fp_line (start -2.075 2.575) (end -2.075 2.43) (layer F.SilkS) (width 0.15))
    (fp_line (start -2.075 -2.575) (end 2.075 -2.575) (layer F.SilkS) (width 0.15))
    (fp_line (start -2.075 2.575) (end 2.075 2.575) (layer F.SilkS) (width 0.15))
    (fp_line (start -2.075 -2.525) (end -3.475 -2.525) (layer F.SilkS) (width 0.15))
    (pad 1 smd rect (at -2.7 -1.905 270) (size 1.55 0.6) (layers F.Cu F.Paste F.Mask)
      (net 8 /POT))
    (pad 2 smd rect (at -2.7 -0.635 270) (size 1.55 0.6) (layers F.Cu F.Paste F.Mask)
      (net 9 /LED2))
    (pad 3 smd rect (at -2.7 0.635 270) (size 1.55 0.6) (layers F.Cu F.Paste F.Mask)
      (net 10 /LED1))
    (pad 4 smd rect (at -2.7 1.905 270) (size 1.55 0.6) (layers F.Cu F.Paste F.Mask)
      (net 2 GND))
    (pad 5 smd rect (at 2.7 1.905 270) (size 1.55 0.6) (layers F.Cu F.Paste F.Mask)
      (net 11 /LED4))
    (pad 6 smd rect (at 2.7 0.635 270) (size 1.55 0.6) (layers F.Cu F.Paste F.Mask)
      (net 12 /LED3))
    (pad 7 smd rect (at 2.7 -0.635 270) (size 1.55 0.6) (layers F.Cu F.Paste F.Mask)
      (net 7 /BTN))
    (pad 8 smd rect (at 2.7 -1.905 270) (size 1.55 0.6) (layers F.Cu F.Paste F.Mask)
      (net 6 /VCC))
    (model Housings_SOIC.3dshapes/SOIC-8_3.9x4.9mm_Pitch1.27mm.wrl
      (at (xyz 0 0 0))
      (scale (xyz 1 1 1))
      (rotate (xyz 0 0 0))
    )
  )

  (gr_line (start 51 115) (end 52 114) (angle 90) (layer Cmts.User) (width 0.2))
  (gr_line (start 51 131) (end 51 115) (angle 90) (layer Cmts.User) (width 0.2))
  (gr_line (start 52 132) (end 51 131) (angle 90) (layer Cmts.User) (width 0.2))
  (gr_line (start 80 132) (end 52 132) (angle 90) (layer Cmts.User) (width 0.2))
  (gr_line (start 80 127) (end 80 132) (angle 90) (layer Cmts.User) (width 0.2))
  (gr_line (start 82 125) (end 80 127) (angle 90) (layer Cmts.User) (width 0.2))
  (gr_line (start 88 125) (end 82 125) (angle 90) (layer Cmts.User) (width 0.2))
  (gr_line (start 88 132) (end 88 125) (angle 90) (layer Cmts.User) (width 0.2))
  (gr_line (start 93 132) (end 88 132) (angle 90) (layer Cmts.User) (width 0.2))
  (gr_line (start 93 114) (end 93 132) (angle 90) (layer Cmts.User) (width 0.2))
  (gr_line (start 88 114) (end 93 114) (angle 90) (layer Cmts.User) (width 0.2))
  (gr_line (start 88 121) (end 88 114) (angle 90) (layer Cmts.User) (width 0.2))
  (gr_line (start 82 121) (end 88 121) (angle 90) (layer Cmts.User) (width 0.2))
  (gr_line (start 80 119) (end 82 121) (angle 90) (layer Cmts.User) (width 0.2))
  (gr_line (start 80 114) (end 80 119) (angle 90) (layer Cmts.User) (width 0.2))
  (gr_line (start 51 114) (end 80 114) (angle 90) (layer Cmts.User) (width 0.2))
  (gr_line (start 94.4 131.5) (end 93 132.9) (angle 90) (layer Edge.Cuts) (width 0.01))
  (gr_line (start 93 113.1) (end 94.4 114.5) (angle 90) (layer Edge.Cuts) (width 0.01))
  (gr_line (start 86.5 118) (end 86.5 113.1) (angle 90) (layer Edge.Cuts) (width 0.01))
  (gr_line (start 86.5 128) (end 86.5 132.9) (angle 90) (layer Edge.Cuts) (width 0.01))
  (gr_line (start 86.5 125.9) (end 86.5 128) (angle 90) (layer Edge.Cuts) (width 0.01))
  (gr_line (start 84.4 125.9) (end 86.5 125.9) (angle 90) (layer Edge.Cuts) (width 0.01))
  (gr_line (start 86.5 120.1) (end 86.5 118) (angle 90) (layer Edge.Cuts) (width 0.01))
  (gr_line (start 84.4 120.1) (end 86.5 120.1) (angle 90) (layer Edge.Cuts) (width 0.01))
  (gr_line (start 82.1 125.9) (end 84.4 125.9) (angle 90) (layer Edge.Cuts) (width 0.01))
  (gr_line (start 82 126) (end 82.1 125.9) (angle 90) (layer Edge.Cuts) (width 0.01))
  (gr_line (start 82.6 120.1) (end 84.4 120.1) (angle 90) (layer Edge.Cuts) (width 0.01))
  (gr_line (start 82.5 120) (end 82.6 120.1) (angle 90) (layer Edge.Cuts) (width 0.01))
  (gr_line (start 81 118.5) (end 82.5 120) (angle 90) (layer Edge.Cuts) (width 0.01))
  (gr_line (start 81 113) (end 81 118.5) (angle 90) (layer Edge.Cuts) (width 0.01))
  (gr_line (start 51 113) (end 81 113) (angle 90) (layer Edge.Cuts) (width 0.01))
  (gr_line (start 50 114) (end 51 113) (angle 90) (layer Edge.Cuts) (width 0.01))
  (gr_line (start 50 132) (end 50 114) (angle 90) (layer Edge.Cuts) (width 0.01))
  (gr_line (start 51 133) (end 50 132) (angle 90) (layer Edge.Cuts) (width 0.01))
  (gr_line (start 81 133) (end 51 133) (angle 90) (layer Edge.Cuts) (width 0.01))
  (gr_line (start 81 127) (end 81 133) (angle 90) (layer Edge.Cuts) (width 0.01))
  (gr_line (start 82 126) (end 81 127) (angle 90) (layer Edge.Cuts) (width 0.01))
  (gr_line (start 93 132.9) (end 86.5 132.9) (angle 90) (layer Edge.Cuts) (width 0.01))
  (gr_line (start 94.4 114.5) (end 94.4 131.5) (angle 90) (layer Edge.Cuts) (width 0.01))
  (gr_line (start 86.5 113.1) (end 93 113.1) (angle 90) (layer Edge.Cuts) (width 0.01))
  (gr_line (start 50 123) (end 94.5 123) (angle 90) (layer Cmts.User) (width 0.2))
  (gr_line (start 80 95) (end 80 133) (angle 90) (layer Cmts.User) (width 0.2))
  (gr_line (start 86.5 97.5) (end 86.5 133) (angle 90) (layer Cmts.User) (width 0.2))
  (gr_line (start 50 113) (end 94.5 113) (angle 90) (layer Cmts.User) (width 0.2))
  (gr_line (start 50 133) (end 94.5 133) (angle 90) (layer Cmts.User) (width 0.2))
  (gr_line (start 94.5 97.5) (end 94.5 133.5) (angle 90) (layer Cmts.User) (width 0.2))
  (gr_line (start 50 80) (end 50 133) (angle 90) (layer Cmts.User) (width 0.2))
  (gr_line (start 86.5 97.5) (end 86.5 90.5) (angle 90) (layer Cmts.User) (width 0.2))
  (gr_line (start 94.5 97.5) (end 86.5 97.5) (angle 90) (layer Cmts.User) (width 0.2))
  (gr_line (start 94.5 77.5) (end 94.5 97.5) (angle 90) (layer Cmts.User) (width 0.2))
  (gr_line (start 86.5 77.5) (end 94.5 77.5) (angle 90) (layer Cmts.User) (width 0.2))
  (gr_line (start 86.5 84.5) (end 86.5 77.5) (angle 90) (layer Cmts.User) (width 0.2))
  (gr_line (start 86.5 90.5) (end 80 90.5) (angle 90) (layer Cmts.User) (width 0.2))
  (gr_line (start 86.5 84.5) (end 86.5 90.5) (angle 90) (layer Cmts.User) (width 0.2))
  (gr_line (start 80 84.5) (end 86.5 84.5) (angle 90) (layer Cmts.User) (width 0.2))
  (gr_line (start 50 87.5) (end 104 87.5) (angle 90) (layer Cmts.User) (width 0.2))
  (gr_line (start 50 95) (end 50 80) (angle 90) (layer Cmts.User) (width 0.2))
  (gr_line (start 80 95) (end 50 95) (angle 90) (layer Cmts.User) (width 0.2))
  (gr_line (start 80 80) (end 80 95) (angle 90) (layer Cmts.User) (width 0.2))
  (gr_line (start 50 80) (end 80 80) (angle 90) (layer Cmts.User) (width 0.2))

  (segment (start 75.90076 116.55) (end 75.90076 116.60076) (width 0.25) (layer F.Cu) (net 1))
  (segment (start 75.90076 116.60076) (end 76.7 117.4) (width 0.25) (layer F.Cu) (net 1) (tstamp 57D9E694))
  (segment (start 76.7 117.4) (end 76.7 117.9) (width 0.25) (layer F.Cu) (net 1) (tstamp 57D9E695))
  (segment (start 76.7 117.9) (end 78 119.2) (width 0.25) (layer F.Cu) (net 1) (tstamp 57D9E696))
  (segment (start 76.705 124.6) (end 76.705 120.495) (width 0.5) (layer F.Cu) (net 1))
  (segment (start 76.705 120.495) (end 78 119.2) (width 0.5) (layer F.Cu) (net 1) (tstamp 57D9E622))
  (segment (start 78 115.2) (end 79.4 115.2) (width 0.25) (layer F.Cu) (net 2))
  (segment (start 89.44 125.54) (end 90.5 125.54) (width 0.25) (layer B.Cu) (net 2) (tstamp 57D9E6B0))
  (segment (start 88.3 124.4) (end 89.44 125.54) (width 0.25) (layer B.Cu) (net 2) (tstamp 57D9E6AE))
  (segment (start 86.2 124.4) (end 88.3 124.4) (width 0.25) (layer B.Cu) (net 2) (tstamp 57D9E6AC))
  (segment (start 84.9 123.1) (end 86.2 124.4) (width 0.25) (layer B.Cu) (net 2) (tstamp 57D9E6AB))
  (via (at 84.9 123.1) (size 0.6) (drill 0.4) (layers F.Cu B.Cu) (net 2))
  (segment (start 83.8 122) (end 84.9 123.1) (width 0.25) (layer F.Cu) (net 2) (tstamp 57D9E6A8))
  (via (at 83.8 122) (size 0.6) (drill 0.4) (layers F.Cu B.Cu) (net 2))
  (segment (start 82.1 122) (end 83.8 122) (width 0.25) (layer B.Cu) (net 2) (tstamp 57D9E6A5))
  (segment (start 79.5 119.4) (end 82.1 122) (width 0.25) (layer B.Cu) (net 2) (tstamp 57D9E6A3))
  (segment (start 79.5 115.3) (end 79.5 119.4) (width 0.25) (layer B.Cu) (net 2) (tstamp 57D9E6A2))
  (segment (start 79.4 115.2) (end 79.5 115.3) (width 0.25) (layer B.Cu) (net 2) (tstamp 57D9E6A1))
  (via (at 79.4 115.2) (size 0.6) (drill 0.4) (layers F.Cu B.Cu) (net 2))
  (segment (start 66.27 124.99) (end 65.69 124.99) (width 0.5) (layer B.Cu) (net 2))
  (segment (start 65.69 124.99) (end 63.5 122.8) (width 0.5) (layer B.Cu) (net 2) (tstamp 57D9E636))
  (segment (start 63.5 122.8) (end 63.1 122.8) (width 0.5) (layer B.Cu) (net 2) (tstamp 57D9E637))
  (segment (start 66.27 124.99) (end 67.71 124.99) (width 0.5) (layer B.Cu) (net 2))
  (segment (start 70.1 124.5) (end 70.1 122.4) (width 0.5) (layer F.Cu) (net 2) (tstamp 57D9E633))
  (via (at 70.1 124.5) (size 0.6) (drill 0.4) (layers F.Cu B.Cu) (net 2))
  (segment (start 68.2 124.5) (end 70.1 124.5) (width 0.5) (layer B.Cu) (net 2) (tstamp 57D9E631))
  (segment (start 67.71 124.99) (end 68.2 124.5) (width 0.5) (layer B.Cu) (net 2) (tstamp 57D9E630))
  (segment (start 75.90076 114.65) (end 77.45 114.65) (width 0.5) (layer F.Cu) (net 2))
  (segment (start 77.45 114.65) (end 78 115.2) (width 0.5) (layer F.Cu) (net 2) (tstamp 57D9E610))
  (segment (start 70.8 115.2) (end 72.2 115.2) (width 0.5) (layer F.Cu) (net 2))
  (segment (start 75.3 114.3) (end 75.65 114.65) (width 0.5) (layer F.Cu) (net 2) (tstamp 57D9E60C))
  (segment (start 73.1 114.3) (end 75.3 114.3) (width 0.5) (layer F.Cu) (net 2) (tstamp 57D9E60B))
  (segment (start 72.2 115.2) (end 73.1 114.3) (width 0.5) (layer F.Cu) (net 2) (tstamp 57D9E60A))
  (segment (start 75.65 114.65) (end 75.90076 114.65) (width 0.5) (layer F.Cu) (net 2) (tstamp 57D9E60D))
  (segment (start 68.50076 114.55) (end 68.55 114.55) (width 0.5) (layer F.Cu) (net 2))
  (segment (start 68.55 114.55) (end 69.2 115.2) (width 0.5) (layer F.Cu) (net 2) (tstamp 57D9E606))
  (segment (start 69.2 115.2) (end 70.8 115.2) (width 0.5) (layer F.Cu) (net 2) (tstamp 57D9E607))
  (segment (start 63.3 115.2) (end 63.4 115.2) (width 0.5) (layer F.Cu) (net 2))
  (segment (start 63.4 115.2) (end 64.4 114.2) (width 0.5) (layer F.Cu) (net 2) (tstamp 57D9E601))
  (segment (start 64.4 114.2) (end 68.15076 114.2) (width 0.5) (layer F.Cu) (net 2) (tstamp 57D9E602))
  (segment (start 68.15076 114.2) (end 68.50076 114.55) (width 0.5) (layer F.Cu) (net 2) (tstamp 57D9E603))
  (segment (start 56.7 115.2) (end 54.65076 115.2) (width 0.5) (layer F.Cu) (net 2))
  (segment (start 54.65076 115.2) (end 54.10076 114.65) (width 0.5) (layer F.Cu) (net 2) (tstamp 57D9E5FE))
  (segment (start 61.30076 114.65) (end 60.75 114.65) (width 0.5) (layer F.Cu) (net 2))
  (segment (start 57.7 114.2) (end 56.7 115.2) (width 0.5) (layer F.Cu) (net 2) (tstamp 57D9E5FB))
  (segment (start 60.3 114.2) (end 57.7 114.2) (width 0.5) (layer F.Cu) (net 2) (tstamp 57D9E5FA))
  (segment (start 60.75 114.65) (end 60.3 114.2) (width 0.5) (layer F.Cu) (net 2) (tstamp 57D9E5F9))
  (segment (start 63.3 115.2) (end 61.85076 115.2) (width 0.5) (layer F.Cu) (net 2))
  (segment (start 61.85076 115.2) (end 61.30076 114.65) (width 0.5) (layer F.Cu) (net 2) (tstamp 57D9E5F4))
  (segment (start 63.1 122.8) (end 65.2 120.7) (width 0.5) (layer F.Cu) (net 2))
  (segment (start 65.2 117.1) (end 63.3 115.2) (width 0.5) (layer F.Cu) (net 2) (tstamp 57D9E5F1))
  (segment (start 65.2 120.7) (end 65.2 117.1) (width 0.5) (layer F.Cu) (net 2) (tstamp 57D9E5F0))
  (segment (start 59.2 125.4) (end 59.2 122.8) (width 0.5) (layer F.Cu) (net 2))
  (segment (start 63.095 122.805) (end 63.095 124.8) (width 0.5) (layer F.Cu) (net 2) (tstamp 57D9E5ED))
  (segment (start 63.1 122.8) (end 63.095 122.805) (width 0.5) (layer F.Cu) (net 2) (tstamp 57D9E5EC))
  (via (at 63.1 122.8) (size 0.6) (drill 0.4) (layers F.Cu B.Cu) (net 2))
  (segment (start 59.2 122.8) (end 63.1 122.8) (width 0.5) (layer B.Cu) (net 2) (tstamp 57D9E5E9))
  (via (at 59.2 122.8) (size 0.6) (drill 0.4) (layers F.Cu B.Cu) (net 2))
  (segment (start 70.8 119.2) (end 70.8 118.74924) (width 0.25) (layer F.Cu) (net 3))
  (segment (start 70.8 118.74924) (end 68.50076 116.45) (width 0.25) (layer F.Cu) (net 3) (tstamp 57D9E68B))
  (segment (start 74.165 124.6) (end 74.165 122.765) (width 0.5) (layer F.Cu) (net 3))
  (segment (start 71.5 120.3) (end 70.8 119.6) (width 0.5) (layer F.Cu) (net 3) (tstamp 57D9E62C))
  (segment (start 71.5 120.7) (end 71.5 120.3) (width 0.5) (layer F.Cu) (net 3) (tstamp 57D9E62B))
  (segment (start 71.5 122.7) (end 71.5 120.7) (width 0.5) (layer F.Cu) (net 3) (tstamp 57D9E62A))
  (via (at 71.5 122.7) (size 0.6) (drill 0.4) (layers F.Cu B.Cu) (net 3))
  (segment (start 74.1 122.7) (end 71.5 122.7) (width 0.5) (layer B.Cu) (net 3) (tstamp 57D9E627))
  (via (at 74.1 122.7) (size 0.6) (drill 0.4) (layers F.Cu B.Cu) (net 3))
  (segment (start 74.165 122.765) (end 74.1 122.7) (width 0.5) (layer F.Cu) (net 3) (tstamp 57D9E625))
  (segment (start 70.8 119.6) (end 70.8 119.2) (width 0.5) (layer F.Cu) (net 3) (tstamp 57D9E62D))
  (segment (start 63.3 119.2) (end 63.3 119) (width 0.25) (layer F.Cu) (net 4))
  (segment (start 63.3 119) (end 62.1 117.8) (width 0.25) (layer F.Cu) (net 4) (tstamp 57D9E680))
  (segment (start 62.1 117.34924) (end 61.30076 116.55) (width 0.25) (layer F.Cu) (net 4) (tstamp 57D9E682))
  (segment (start 62.1 117.8) (end 62.1 117.34924) (width 0.25) (layer F.Cu) (net 4) (tstamp 57D9E681))
  (segment (start 56.005 124.7) (end 56.005 122.695) (width 0.5) (layer F.Cu) (net 4))
  (segment (start 62.2 120.3) (end 63.3 119.2) (width 0.5) (layer F.Cu) (net 4) (tstamp 57D9E61F))
  (segment (start 62.2 121.4) (end 62.2 120.3) (width 0.5) (layer F.Cu) (net 4) (tstamp 57D9E61E))
  (segment (start 61.9 121.7) (end 62.2 121.4) (width 0.5) (layer F.Cu) (net 4) (tstamp 57D9E61D))
  (via (at 61.9 121.7) (size 0.6) (drill 0.4) (layers F.Cu B.Cu) (net 4))
  (segment (start 57 121.7) (end 61.9 121.7) (width 0.5) (layer B.Cu) (net 4) (tstamp 57D9E61A))
  (via (at 57 121.7) (size 0.6) (drill 0.4) (layers F.Cu B.Cu) (net 4))
  (segment (start 56.005 122.695) (end 57 121.7) (width 0.5) (layer F.Cu) (net 4) (tstamp 57D9E618))
  (segment (start 56.7 119.2) (end 56.7 119.14924) (width 0.25) (layer F.Cu) (net 5))
  (segment (start 56.7 119.14924) (end 54.10076 116.55) (width 0.25) (layer F.Cu) (net 5) (tstamp 57D9E66D))
  (segment (start 53.465 124.7) (end 53.465 123.635) (width 0.5) (layer F.Cu) (net 5))
  (segment (start 54.4 121.5) (end 56.7 119.2) (width 0.5) (layer F.Cu) (net 5) (tstamp 57D9E615))
  (segment (start 54.4 122.7) (end 54.4 121.5) (width 0.5) (layer F.Cu) (net 5) (tstamp 57D9E614))
  (segment (start 53.465 123.635) (end 54.4 122.7) (width 0.5) (layer F.Cu) (net 5) (tstamp 57D9E613))
  (segment (start 67.1 131.6) (end 67.8 130.9) (width 0.25) (layer B.Cu) (net 6) (tstamp 57D9E728))
  (segment (start 65.2 131.6) (end 67.1 131.6) (width 0.25) (layer B.Cu) (net 6) (tstamp 57D9E726))
  (segment (start 65.2 131.6) (end 63.73 130.13) (width 0.25) (layer B.Cu) (net 6) (tstamp 57D9E725))
  (segment (start 63.73 130.07) (end 63.73 130.13) (width 0.25) (layer B.Cu) (net 6))
  (segment (start 79.8 123) (end 83.7 123) (width 0.25) (layer B.Cu) (net 6))
  (segment (start 88.8 121.5) (end 89.84 120.46) (width 0.25) (layer B.Cu) (net 6) (tstamp 57D9E69B))
  (segment (start 85.2 121.5) (end 88.8 121.5) (width 0.25) (layer B.Cu) (net 6) (tstamp 57D9E69A))
  (segment (start 83.7 123) (end 85.2 121.5) (width 0.25) (layer B.Cu) (net 6) (tstamp 57D9E699))
  (segment (start 89.84 120.46) (end 90.5 120.46) (width 0.25) (layer B.Cu) (net 6) (tstamp 57D9E69C))
  (segment (start 70.1 126.4) (end 71.6 126.4) (width 0.5) (layer F.Cu) (net 6))
  (segment (start 79.8 126.2) (end 79.8 123) (width 0.5) (layer F.Cu) (net 6) (tstamp 57D9E645))
  (segment (start 79.6 126.4) (end 79.8 126.2) (width 0.5) (layer F.Cu) (net 6) (tstamp 57D9E644))
  (via (at 79.6 126.4) (size 0.6) (drill 0.4) (layers F.Cu B.Cu) (net 6))
  (segment (start 71.6 126.4) (end 79.6 126.4) (width 0.5) (layer B.Cu) (net 6) (tstamp 57D9E641))
  (via (at 71.6 126.4) (size 0.6) (drill 0.4) (layers F.Cu B.Cu) (net 6))
  (segment (start 67.8 130.9) (end 67.8 130.7) (width 0.25) (layer F.Cu) (net 6))
  (segment (start 67.8 130.7) (end 68 130.5) (width 0.25) (layer F.Cu) (net 6) (tstamp 57D9E745))
  (segment (start 68 130.5) (end 68 130.2) (width 0.25) (layer F.Cu) (net 6) (tstamp 57D9E746))
  (segment (start 67.8 130.7) (end 67.3 130.2) (width 0.25) (layer F.Cu) (net 6) (tstamp 57D9E740))
  (segment (start 67.8 130.2) (end 67.8 130.9) (width 0.25) (layer F.Cu) (net 6))
  (via (at 67.8 130.9) (size 0.6) (drill 0.4) (layers F.Cu B.Cu) (net 6))
  (segment (start 66.905 130.605) (end 66.905 130.2) (width 0.25) (layer F.Cu) (net 6) (tstamp 57D9E72C))
  (segment (start 66.905 130.2) (end 67.3 130.2) (width 0.5) (layer F.Cu) (net 6))
  (segment (start 67.3 130.2) (end 67.8 130.2) (width 0.5) (layer F.Cu) (net 6) (tstamp 57D9E743))
  (segment (start 67.8 130.2) (end 68 130.2) (width 0.5) (layer F.Cu) (net 6) (tstamp 57D9E73E))
  (segment (start 68.1 128.4) (end 70.1 126.4) (width 0.5) (layer F.Cu) (net 6) (tstamp 57D9E63C))
  (segment (start 68.1 130.1) (end 68.1 128.4) (width 0.5) (layer F.Cu) (net 6) (tstamp 57D9E63B))
  (segment (start 68 130.2) (end 68.1 130.1) (width 0.5) (layer F.Cu) (net 6) (tstamp 57D9E63A))
  (segment (start 63.73 127.53) (end 64.6 128.4) (width 0.25) (layer B.Cu) (net 7))
  (segment (start 65.2 128.4) (end 65.7 128.9) (width 0.25) (layer B.Cu) (net 7) (tstamp 57D9E6FB))
  (segment (start 64.6 128.4) (end 65.2 128.4) (width 0.25) (layer B.Cu) (net 7) (tstamp 57D9E6FA))
  (segment (start 65.635 130.2) (end 65.635 128.965) (width 0.25) (layer F.Cu) (net 7))
  (segment (start 68.8 128.8) (end 70 130) (width 0.25) (layer B.Cu) (net 7) (tstamp 57D9E6F6))
  (segment (start 65.8 128.8) (end 68.8 128.8) (width 0.25) (layer B.Cu) (net 7) (tstamp 57D9E6F5))
  (segment (start 65.7 128.9) (end 65.8 128.8) (width 0.25) (layer B.Cu) (net 7) (tstamp 57D9E6F4))
  (via (at 65.7 128.9) (size 0.6) (drill 0.4) (layers F.Cu B.Cu) (net 7))
  (segment (start 65.635 128.965) (end 65.7 128.9) (width 0.25) (layer F.Cu) (net 7) (tstamp 57D9E6F2))
  (segment (start 66.905 124.8) (end 66.905 123.695) (width 0.25) (layer F.Cu) (net 8))
  (segment (start 86.6 124.2) (end 87.8 123) (width 0.25) (layer F.Cu) (net 8) (tstamp 57D9E71F))
  (segment (start 84.7 124.2) (end 86.6 124.2) (width 0.25) (layer F.Cu) (net 8) (tstamp 57D9E71E))
  (via (at 84.7 124.2) (size 0.6) (drill 0.4) (layers F.Cu B.Cu) (net 8))
  (segment (start 81.9 124.2) (end 84.7 124.2) (width 0.25) (layer B.Cu) (net 8) (tstamp 57D9E71C))
  (segment (start 81 125.1) (end 81.9 124.2) (width 0.25) (layer B.Cu) (net 8) (tstamp 57D9E71A))
  (segment (start 78.2 125.1) (end 81 125.1) (width 0.25) (layer B.Cu) (net 8) (tstamp 57D9E718))
  (segment (start 76.8 123.7) (end 78.2 125.1) (width 0.25) (layer B.Cu) (net 8) (tstamp 57D9E716))
  (segment (start 68.5 123.7) (end 76.8 123.7) (width 0.25) (layer B.Cu) (net 8) (tstamp 57D9E715))
  (segment (start 67.7 122.9) (end 68.5 123.7) (width 0.25) (layer B.Cu) (net 8) (tstamp 57D9E714))
  (via (at 67.7 122.9) (size 0.6) (drill 0.4) (layers F.Cu B.Cu) (net 8))
  (segment (start 66.905 123.695) (end 67.7 122.9) (width 0.25) (layer F.Cu) (net 8) (tstamp 57D9E712))
  (segment (start 87.8 123) (end 87.96 123) (width 0.25) (layer F.Cu) (net 8) (tstamp 57D9E721))
  (segment (start 63.73 124.99) (end 63.73 125.23) (width 0.25) (layer B.Cu) (net 8))
  (segment (start 63.73 125.23) (end 64.7 126.2) (width 0.25) (layer B.Cu) (net 8) (tstamp 57D9E6EB))
  (segment (start 64.7 126.2) (end 66.9 126.2) (width 0.25) (layer B.Cu) (net 8) (tstamp 57D9E6EC))
  (via (at 66.9 126.2) (size 0.6) (drill 0.4) (layers F.Cu B.Cu) (net 8))
  (segment (start 66.9 126.2) (end 66.905 126.195) (width 0.25) (layer F.Cu) (net 8) (tstamp 57D9E6EE))
  (segment (start 66.905 126.195) (end 66.905 124.8) (width 0.25) (layer F.Cu) (net 8) (tstamp 57D9E6EF))
  (segment (start 65.635 124.8) (end 65.635 122.215) (width 0.25) (layer F.Cu) (net 9))
  (segment (start 65.635 122.215) (end 66.8 121.05) (width 0.25) (layer F.Cu) (net 9) (tstamp 57D9E6C4))
  (segment (start 64.365 124.8) (end 64.365 122.835) (width 0.25) (layer F.Cu) (net 10))
  (segment (start 74.3 120.2) (end 74.3 120.4) (width 0.25) (layer F.Cu) (net 10) (tstamp 57D9E6DD))
  (segment (start 74.3 119.8) (end 74.3 120.2) (width 0.25) (layer F.Cu) (net 10) (tstamp 57D9E6DC))
  (via (at 74.3 119.8) (size 0.6) (drill 0.4) (layers F.Cu B.Cu) (net 10))
  (segment (start 72.9 121.2) (end 74.3 119.8) (width 0.25) (layer B.Cu) (net 10) (tstamp 57D9E6D9))
  (segment (start 66 121.2) (end 72.9 121.2) (width 0.25) (layer B.Cu) (net 10) (tstamp 57D9E6D7))
  (segment (start 64.9 122.3) (end 66 121.2) (width 0.25) (layer B.Cu) (net 10) (tstamp 57D9E6D6))
  (via (at 64.9 122.3) (size 0.6) (drill 0.4) (layers F.Cu B.Cu) (net 10))
  (segment (start 64.365 122.835) (end 64.9 122.3) (width 0.25) (layer F.Cu) (net 10) (tstamp 57D9E6D4))
  (segment (start 74.3 120.4) (end 74.2 120.5) (width 0.25) (layer F.Cu) (net 10) (tstamp 57D9E6DE))
  (segment (start 74.2 120.5) (end 74.2 121.15) (width 0.25) (layer F.Cu) (net 10) (tstamp 57D9E6DF))
  (segment (start 66.27 130.07) (end 65.97 130.07) (width 0.25) (layer B.Cu) (net 11))
  (segment (start 65.97 130.07) (end 64.8 128.9) (width 0.25) (layer B.Cu) (net 11) (tstamp 57D9E72F))
  (segment (start 64.8 128.9) (end 63.2 128.9) (width 0.25) (layer B.Cu) (net 11) (tstamp 57D9E730))
  (via (at 63.2 128.9) (size 0.6) (drill 0.4) (layers F.Cu B.Cu) (net 11))
  (segment (start 63.2 128.9) (end 63.5 129.2) (width 0.25) (layer F.Cu) (net 11) (tstamp 57D9E735))
  (segment (start 63.5 129.2) (end 63.5 129.795) (width 0.25) (layer F.Cu) (net 11) (tstamp 57D9E736))
  (segment (start 63.5 129.795) (end 63.095 130.2) (width 0.25) (layer F.Cu) (net 11) (tstamp 57D9E737))
  (segment (start 63.095 130.2) (end 63.095 129.795) (width 0.25) (layer F.Cu) (net 11))
  (segment (start 63.095 129.795) (end 60.5 127.2) (width 0.25) (layer F.Cu) (net 11) (tstamp 57D9E6C8))
  (segment (start 60.5 127.2) (end 53.8 127.2) (width 0.25) (layer F.Cu) (net 11) (tstamp 57D9E6C9))
  (segment (start 53.8 127.2) (end 52.83 126.23) (width 0.25) (layer F.Cu) (net 11) (tstamp 57D9E6CB))
  (segment (start 52.83 126.23) (end 52.83 122.46) (width 0.25) (layer F.Cu) (net 11) (tstamp 57D9E6CD))
  (segment (start 52.83 122.46) (end 53.11 122.18) (width 0.25) (layer F.Cu) (net 11) (tstamp 57D9E6CE))
  (segment (start 53.11 122.18) (end 53.11 121.86) (width 0.25) (layer F.Cu) (net 11) (tstamp 57D9E6CF))
  (segment (start 53.11 121.86) (end 52.4 121.15) (width 0.25) (layer F.Cu) (net 11) (tstamp 57D9E6D0))
  (segment (start 66.27 127.53) (end 65.83 127.53) (width 0.25) (layer B.Cu) (net 12))
  (segment (start 65.83 127.53) (end 65 126.7) (width 0.25) (layer B.Cu) (net 12) (tstamp 57D9E704))
  (segment (start 60.5 121.95) (end 59.7 121.15) (width 0.25) (layer F.Cu) (net 12) (tstamp 57D9E70F))
  (segment (start 60.5 122.9) (end 60.5 121.95) (width 0.25) (layer F.Cu) (net 12) (tstamp 57D9E70E))
  (segment (start 61.3 123.7) (end 60.5 122.9) (width 0.25) (layer F.Cu) (net 12) (tstamp 57D9E70D))
  (via (at 61.3 123.7) (size 0.6) (drill 0.4) (layers F.Cu B.Cu) (net 12))
  (segment (start 61.3 125.1) (end 61.3 123.7) (width 0.25) (layer B.Cu) (net 12) (tstamp 57D9E70A))
  (segment (start 62.5 126.3) (end 61.3 125.1) (width 0.25) (layer B.Cu) (net 12) (tstamp 57D9E708))
  (segment (start 64.1 126.3) (end 62.5 126.3) (width 0.25) (layer B.Cu) (net 12) (tstamp 57D9E707))
  (segment (start 64.5 126.7) (end 64.1 126.3) (width 0.25) (layer B.Cu) (net 12) (tstamp 57D9E706))
  (segment (start 65 126.7) (end 64.5 126.7) (width 0.25) (layer B.Cu) (net 12) (tstamp 57D9E705))
  (segment (start 64.365 130.2) (end 64.365 128.235) (width 0.25) (layer F.Cu) (net 12))
  (segment (start 65.07 127.53) (end 66.27 127.53) (width 0.25) (layer B.Cu) (net 12) (tstamp 57D9E701))
  (segment (start 65 127.6) (end 65.07 127.53) (width 0.25) (layer B.Cu) (net 12) (tstamp 57D9E700))
  (via (at 65 127.6) (size 0.6) (drill 0.4) (layers F.Cu B.Cu) (net 12))
  (segment (start 64.365 128.235) (end 65 127.6) (width 0.25) (layer F.Cu) (net 12) (tstamp 57D9E6FE))
  (segment (start 59.1 130.1) (end 60.3 130.1) (width 0.5) (layer F.Cu) (net 13))
  (segment (start 71.9 131.7) (end 72.895 130.705) (width 0.5) (layer F.Cu) (net 13) (tstamp 57D9E65F))
  (segment (start 61.9 131.7) (end 71.9 131.7) (width 0.5) (layer F.Cu) (net 13) (tstamp 57D9E65E))
  (segment (start 60.3 130.1) (end 61.9 131.7) (width 0.5) (layer F.Cu) (net 13) (tstamp 57D9E65D))
  (segment (start 72.895 130.705) (end 72.895 130) (width 0.5) (layer F.Cu) (net 13) (tstamp 57D9E660))
  (segment (start 56.005 130.1) (end 59.1 130.1) (width 0.5) (layer F.Cu) (net 13))
  (segment (start 52.195 130.1) (end 53.465 130.1) (width 0.5) (layer F.Cu) (net 13))
  (segment (start 53.465 130.1) (end 54.735 130.1) (width 0.5) (layer F.Cu) (net 13) (tstamp 57D9E656))
  (segment (start 54.735 130.1) (end 56.005 130.1) (width 0.5) (layer F.Cu) (net 13) (tstamp 57D9E657))
  (segment (start 76.705 130) (end 75.435 130) (width 0.5) (layer F.Cu) (net 13))
  (segment (start 75.435 130) (end 74.165 130) (width 0.5) (layer F.Cu) (net 13) (tstamp 57D9E652))
  (segment (start 74.165 130) (end 72.895 130) (width 0.5) (layer F.Cu) (net 13) (tstamp 57D9E653))
  (segment (start 75.435 124.6) (end 75.435 123.365) (width 0.25) (layer F.Cu) (net 14))
  (segment (start 76.1 120.35) (end 74.2 118.45) (width 0.25) (layer F.Cu) (net 14) (tstamp 57D9E6B7))
  (segment (start 76.1 122.7) (end 76.1 120.35) (width 0.25) (layer F.Cu) (net 14) (tstamp 57D9E6B6))
  (segment (start 75.435 123.365) (end 76.1 122.7) (width 0.25) (layer F.Cu) (net 14) (tstamp 57D9E6B5))
  (segment (start 73.90178 115.6) (end 73.9 115.6) (width 0.25) (layer F.Cu) (net 14))
  (segment (start 73.9 115.6) (end 73.4 116.1) (width 0.25) (layer F.Cu) (net 14) (tstamp 57D9E68F))
  (segment (start 73.4 116.1) (end 73.4 117.65) (width 0.25) (layer F.Cu) (net 14) (tstamp 57D9E690))
  (segment (start 73.4 117.65) (end 74.2 118.45) (width 0.25) (layer F.Cu) (net 14) (tstamp 57D9E691))
  (segment (start 72.895 124.6) (end 72.895 119.995) (width 0.25) (layer F.Cu) (net 15))
  (segment (start 67.9 119.6) (end 66.8 118.5) (width 0.25) (layer F.Cu) (net 15) (tstamp 57D9E6C0))
  (via (at 67.9 119.6) (size 0.6) (drill 0.4) (layers F.Cu B.Cu) (net 15))
  (segment (start 72.5 119.6) (end 67.9 119.6) (width 0.25) (layer B.Cu) (net 15) (tstamp 57D9E6BE))
  (segment (start 72.7 119.8) (end 72.5 119.6) (width 0.25) (layer B.Cu) (net 15) (tstamp 57D9E6BD))
  (via (at 72.7 119.8) (size 0.6) (drill 0.4) (layers F.Cu B.Cu) (net 15))
  (segment (start 72.895 119.995) (end 72.7 119.8) (width 0.25) (layer F.Cu) (net 15) (tstamp 57D9E6BB))
  (segment (start 66.8 118.5) (end 66.8 118.35) (width 0.25) (layer F.Cu) (net 15) (tstamp 57D9E6C1))
  (segment (start 66.50178 115.5) (end 66.5 115.5) (width 0.25) (layer F.Cu) (net 15))
  (segment (start 66.5 115.5) (end 65.9 116.1) (width 0.25) (layer F.Cu) (net 15) (tstamp 57D9E686))
  (segment (start 65.9 116.1) (end 65.9 117.45) (width 0.25) (layer F.Cu) (net 15) (tstamp 57D9E687))
  (segment (start 65.9 117.45) (end 66.8 118.35) (width 0.25) (layer F.Cu) (net 15) (tstamp 57D9E688))
  (segment (start 59.7 118.45) (end 59.7 115.99822) (width 0.25) (layer F.Cu) (net 16))
  (segment (start 59.7 115.99822) (end 59.30178 115.6) (width 0.25) (layer F.Cu) (net 16) (tstamp 57D9E67A))
  (segment (start 54.735 124.7) (end 54.735 123.465) (width 0.25) (layer F.Cu) (net 16))
  (segment (start 58.6 119.55) (end 59.7 118.45) (width 0.25) (layer F.Cu) (net 16) (tstamp 57D9E677))
  (segment (start 58.6 120) (end 58.6 119.55) (width 0.25) (layer F.Cu) (net 16) (tstamp 57D9E676))
  (segment (start 57.8 120.8) (end 58.6 120) (width 0.25) (layer F.Cu) (net 16) (tstamp 57D9E675))
  (segment (start 56.6 120.8) (end 57.8 120.8) (width 0.25) (layer F.Cu) (net 16) (tstamp 57D9E673))
  (segment (start 55.3 122.1) (end 56.6 120.8) (width 0.25) (layer F.Cu) (net 16) (tstamp 57D9E672))
  (segment (start 55.3 122.9) (end 55.3 122.1) (width 0.25) (layer F.Cu) (net 16) (tstamp 57D9E671))
  (segment (start 54.735 123.465) (end 55.3 122.9) (width 0.25) (layer F.Cu) (net 16) (tstamp 57D9E670))
  (segment (start 52.4 118.45) (end 52.4 115.89822) (width 0.25) (layer F.Cu) (net 17))
  (segment (start 52.4 115.89822) (end 52.10178 115.6) (width 0.25) (layer F.Cu) (net 17) (tstamp 57D9E66A))
  (segment (start 52.195 124.7) (end 52.195 124.195) (width 0.25) (layer F.Cu) (net 17))
  (segment (start 52.195 124.195) (end 51.1 123.1) (width 0.25) (layer F.Cu) (net 17) (tstamp 57D9E663))
  (segment (start 51.1 123.1) (end 51.1 116.60178) (width 0.25) (layer F.Cu) (net 17) (tstamp 57D9E664))
  (segment (start 51.1 116.60178) (end 52.10178 115.6) (width 0.25) (layer F.Cu) (net 17) (tstamp 57D9E666))

)
